﻿ 2018-07-18 18:29:19,656 [P12464/D2/T1] INFO  Umbraco.Core.CoreBootManager - Umbraco 7.11.1 application starting on DESKTOP-BT7GGVQ
 2018-07-18 18:29:19,680 [P12464/D2/T1] INFO  Umbraco.Core.PluginManager - Determining hash of code files on disk
 2018-07-18 18:29:19,698 [P12464/D2/T1] INFO  Umbraco.Core.PluginManager - Hash determined (took 18ms)
 2018-07-18 18:29:19,775 [P12464/D2/T1] INFO  Umbraco.Core.MainDom - Acquiring MainDom...
 2018-07-18 18:29:19,777 [P12464/D2/T1] INFO  Umbraco.Core.MainDom - Acquired MainDom.
 2018-07-18 18:29:19,778 [P12464/D2/T1] INFO  Umbraco.Core.PluginManager - Resolving umbraco.interfaces.IDiscoverable
 2018-07-18 18:29:20,143 [P12464/D2/T1] INFO  Umbraco.Core.PluginManager - Resolved umbraco.interfaces.IDiscoverable (took 364ms)
 2018-07-18 18:29:20,143 [P12464/D2/T1] INFO  Umbraco.Core.PluginManager - Resolving umbraco.interfaces.IApplicationStartupHandler
 2018-07-18 18:29:20,146 [P12464/D2/T1] INFO  Umbraco.Core.PluginManager - Resolved umbraco.interfaces.IApplicationStartupHandler (took 2ms)
 2018-07-18 18:29:20,165 [P12464/D2/T1] INFO  Umbraco.Core.PluginManager - Resolving umbraco.interfaces.IDiscoverable
 2018-07-18 18:29:20,165 [P12464/D2/T1] INFO  Umbraco.Core.PluginManager - Resolved umbraco.interfaces.IDiscoverable (took 0ms)
 2018-07-18 18:29:20,165 [P12464/D2/T1] INFO  Umbraco.Core.PluginManager - Resolving Umbraco.Core.PropertyEditors.IPropertyEditorValueConverter
 2018-07-18 18:29:20,176 [P12464/D2/T1] INFO  Umbraco.Core.PluginManager - Resolved Umbraco.Core.PropertyEditors.IPropertyEditorValueConverter (took 10ms)
 2018-07-18 18:29:20,176 [P12464/D2/T1] INFO  Umbraco.Core.PluginManager - Resolving umbraco.interfaces.IDiscoverable
 2018-07-18 18:29:20,177 [P12464/D2/T1] INFO  Umbraco.Core.PluginManager - Resolved umbraco.interfaces.IDiscoverable (took 0ms)
 2018-07-18 18:29:20,177 [P12464/D2/T1] INFO  Umbraco.Core.PluginManager - Resolving Umbraco.Core.PropertyEditors.IPropertyValueConverter
 2018-07-18 18:29:20,180 [P12464/D2/T1] INFO  Umbraco.Core.PluginManager - Resolved Umbraco.Core.PropertyEditors.IPropertyValueConverter (took 2ms)
 2018-07-18 18:29:20,193 [P12464/D2/T1] INFO  Umbraco.Core.PluginManager - Resolving umbraco.interfaces.IDiscoverable
 2018-07-18 18:29:20,194 [P12464/D2/T1] INFO  Umbraco.Core.PluginManager - Resolved umbraco.interfaces.IDiscoverable (took 0ms)
 2018-07-18 18:29:20,194 [P12464/D2/T1] INFO  Umbraco.Core.PluginManager - Resolving Umbraco.Web.Mvc.SurfaceController
 2018-07-18 18:29:20,196 [P12464/D2/T1] INFO  Umbraco.Core.PluginManager - Resolved Umbraco.Web.Mvc.SurfaceController (took 2ms)
 2018-07-18 18:29:20,197 [P12464/D2/T1] INFO  Umbraco.Core.PluginManager - Resolving umbraco.interfaces.IDiscoverable
 2018-07-18 18:29:20,197 [P12464/D2/T1] INFO  Umbraco.Core.PluginManager - Resolved umbraco.interfaces.IDiscoverable (took 0ms)
 2018-07-18 18:29:20,197 [P12464/D2/T1] INFO  Umbraco.Core.PluginManager - Resolving Umbraco.Web.WebApi.UmbracoApiController
 2018-07-18 18:29:20,201 [P12464/D2/T1] INFO  Umbraco.Core.PluginManager - Resolved Umbraco.Web.WebApi.UmbracoApiController (took 3ms)
 2018-07-18 18:29:21,941 [P12464/D2/T1] INFO  Umbraco.Core.DatabaseContext - CanConnect = True
 2018-07-18 18:29:22,260 [P12464/D2/T1] INFO  Umbraco.Web.Cache.CacheRefresherEventHandler - Initializing Umbraco internal event handlers for cache refreshing
 2018-07-18 18:29:22,397 [P12464/D2/T1] INFO  Umbraco.Web.Search.ExamineEvents - Initializing Examine and binding to business logic events
 2018-07-18 18:29:22,729 [P12464/D2/T1] INFO  Umbraco.Web.Search.ExamineEvents - Adding examine event handlers for index providers: 3
 2018-07-18 18:29:22,753 [P12464/D2/T1] INFO  Umbraco.Core.CoreBootManager - Umbraco application startup complete (took 3193ms)
 2018-07-18 18:29:22,970 [P12464/D2/T10] INFO  Umbraco.Core.Sync.ApplicationUrlHelper - New ApplicationUrl detected: http://localhost:58619/umbraco
 2018-07-18 18:29:22,972 [P12464/D2/T10] INFO  Umbraco.Core.Sync.ApplicationUrlHelper - ApplicationUrl: http://localhost:58619/umbraco (UmbracoModule request)
 2018-07-18 18:30:36,080 [P12464/D2/T11] INFO  Umbraco.Core.PluginManager - Resolving umbraco.interfaces.IDiscoverable
 2018-07-18 18:30:36,081 [P12464/D2/T11] INFO  Umbraco.Core.PluginManager - Resolved umbraco.interfaces.IDiscoverable (took 0ms)
 2018-07-18 18:30:36,081 [P12464/D2/T11] INFO  Umbraco.Core.PluginManager - Resolving [Umbraco.Web.Trees.TreeAttribute]Umbraco.Web.Trees.TreeController
 2018-07-18 18:30:36,090 [P12464/D2/T11] INFO  Umbraco.Core.PluginManager - Resolved [Umbraco.Web.Trees.TreeAttribute]Umbraco.Web.Trees.TreeController (took 8ms)
 2018-07-18 18:30:36,429 [P12464/D2/T6] INFO  Umbraco.Core.PluginManager - Resolving umbraco.interfaces.IDiscoverable
 2018-07-18 18:30:36,430 [P12464/D2/T6] INFO  Umbraco.Core.PluginManager - Resolved umbraco.interfaces.IDiscoverable (took 1ms)
 2018-07-18 18:30:36,431 [P12464/D2/T6] INFO  Umbraco.Core.PluginManager - Resolving umbraco.interfaces.IAction
 2018-07-18 18:30:36,435 [P12464/D2/T6] INFO  Umbraco.Core.PluginManager - Resolved umbraco.interfaces.IAction (took 3ms)
 2018-07-18 18:30:36,598 [P12464/D2/T6] INFO  Umbraco.Core.PluginManager - Resolving umbraco.interfaces.IDiscoverable
 2018-07-18 18:30:36,599 [P12464/D2/T6] INFO  Umbraco.Core.PluginManager - Resolved umbraco.interfaces.IDiscoverable (took 0ms)
 2018-07-18 18:30:36,599 [P12464/D2/T6] INFO  Umbraco.Core.PluginManager - Resolving Umbraco.Core.PropertyEditors.IParameterEditor
 2018-07-18 18:30:36,603 [P12464/D2/T6] INFO  Umbraco.Core.PluginManager - Resolved Umbraco.Core.PropertyEditors.IParameterEditor (took 4ms)
 2018-07-18 18:30:45,272 [P12464/D2/T12] INFO  Umbraco.Core.Security.BackOfficeSignInManager - Event Id: 0, state: Login attempt succeeded for username nmac93@outlook.com from IP address ::1
 2018-07-18 18:30:45,274 [P12464/D2/T12] INFO  Umbraco.Core.Security.BackOfficeSignInManager - Event Id: 0, state: User: nmac93@outlook.com logged in from IP address ::1
 2018-07-18 18:30:46,977 [P12464/D2/T6] INFO  Umbraco.Core.PluginManager - Resolving umbraco.interfaces.IDiscoverable
 2018-07-18 18:30:46,977 [P12464/D2/T6] INFO  Umbraco.Core.PluginManager - Resolved umbraco.interfaces.IDiscoverable (took 0ms)
 2018-07-18 18:30:46,977 [P12464/D2/T6] INFO  Umbraco.Core.PluginManager - Resolving umbraco.interfaces.ITree
 2018-07-18 18:30:46,982 [P12464/D2/T6] INFO  Umbraco.Core.PluginManager - Resolved umbraco.interfaces.ITree (took 5ms)
 2018-07-18 18:30:46,997 [P12464/D2/T6] INFO  Umbraco.Core.PluginManager - Resolving umbraco.interfaces.IDiscoverable
 2018-07-18 18:30:46,998 [P12464/D2/T6] INFO  Umbraco.Core.PluginManager - Resolved umbraco.interfaces.IDiscoverable (took 0ms)
 2018-07-18 18:30:46,998 [P12464/D2/T6] INFO  Umbraco.Core.PluginManager - Resolving [Umbraco.Web.Trees.TreeAttribute]Umbraco.Web.Trees.TreeController
 2018-07-18 18:30:46,999 [P12464/D2/T6] INFO  Umbraco.Core.PluginManager - Resolved [Umbraco.Web.Trees.TreeAttribute]Umbraco.Web.Trees.TreeController (took 1ms)
 2018-07-18 18:30:47,003 [P12464/D2/T6] INFO  Umbraco.Core.PluginManager - Resolving umbraco.interfaces.IDiscoverable
 2018-07-18 18:30:47,003 [P12464/D2/T6] INFO  Umbraco.Core.PluginManager - Resolved umbraco.interfaces.IDiscoverable (took 0ms)
 2018-07-18 18:30:47,003 [P12464/D2/T6] INFO  Umbraco.Core.PluginManager - Resolving [umbraco.businesslogic.TreeAttribute]umbraco.interfaces.ITree
 2018-07-18 18:30:47,009 [P12464/D2/T6] INFO  Umbraco.Core.PluginManager - Resolved [umbraco.businesslogic.TreeAttribute]umbraco.interfaces.ITree (took 5ms)
 2018-07-18 18:30:47,040 [P12464/D2/T6] INFO  Umbraco.Core.PluginManager - Resolving umbraco.interfaces.IDiscoverable
 2018-07-18 18:30:47,040 [P12464/D2/T6] INFO  Umbraco.Core.PluginManager - Resolved umbraco.interfaces.IDiscoverable (took 0ms)
 2018-07-18 18:30:47,041 [P12464/D2/T6] INFO  Umbraco.Core.PluginManager - Resolving [umbraco.businesslogic.ApplicationAttribute]umbraco.interfaces.IApplication
 2018-07-18 18:30:47,062 [P12464/D2/T6] INFO  Umbraco.Core.PluginManager - Resolved [umbraco.businesslogic.ApplicationAttribute]umbraco.interfaces.IApplication (took 20ms)
 2018-07-18 18:30:47,357 [P12464/D2/T11] INFO  Umbraco.Core.PluginManager - Resolving umbraco.interfaces.IDiscoverable
 2018-07-18 18:30:47,357 [P12464/D2/T11] INFO  Umbraco.Core.PluginManager - Resolved umbraco.interfaces.IDiscoverable (took 0ms)
 2018-07-18 18:30:47,357 [P12464/D2/T11] INFO  Umbraco.Core.PluginManager - Resolving [Umbraco.Core.Persistence.Mappers.MapperForAttribute]Umbraco.Core.Persistence.Mappers.BaseMapper
 2018-07-18 18:30:47,361 [P12464/D2/T11] INFO  Umbraco.Core.PluginManager - Resolved [Umbraco.Core.Persistence.Mappers.MapperForAttribute]Umbraco.Core.Persistence.Mappers.BaseMapper (took 3ms)
 2018-07-18 18:30:47,821 [P12464/D2/T12] INFO  umbraco.content - Load Xml from file...
 2018-07-18 18:30:47,842 [P12464/D2/T12] INFO  umbraco.content - Loaded Xml from file.
 2018-07-18 18:30:53,657 [P12464/D2/T17] INFO  Umbraco.Core.PluginManager - Resolving umbraco.interfaces.IDiscoverable
 2018-07-18 18:30:53,660 [P12464/D2/T17] INFO  Umbraco.Core.PluginManager - Resolved umbraco.interfaces.IDiscoverable (took 3ms)
 2018-07-18 18:30:53,660 [P12464/D2/T17] INFO  Umbraco.Core.PluginManager - Resolving Umbraco.Web.HealthCheck.HealthCheck
 2018-07-18 18:30:53,669 [P12464/D2/T17] INFO  Umbraco.Core.PluginManager - Resolved Umbraco.Web.HealthCheck.HealthCheck (took 8ms)
 2018-07-18 18:31:36,470 [P12464/D2/T11] INFO  umbraco.BusinessLogic.Log - Log scrubbed.  Removed all items older than 2018-07-17 18:31:36
 2018-07-18 18:38:45,627 [P12464/D2/T33] INFO  Umbraco.Core.PluginManager - Resolving umbraco.interfaces.IDiscoverable
 2018-07-18 18:38:45,628 [P12464/D2/T33] INFO  Umbraco.Core.PluginManager - Resolved umbraco.interfaces.IDiscoverable (took 0ms)
 2018-07-18 18:38:45,628 [P12464/D2/T33] INFO  Umbraco.Core.PluginManager - Resolving umbraco.interfaces.ICacheRefresher
 2018-07-18 18:38:45,632 [P12464/D2/T33] INFO  Umbraco.Core.PluginManager - Resolved umbraco.interfaces.ICacheRefresher (took 4ms)
 2018-07-18 18:50:16,528 [P12464/D2/T68] INFO  Umbraco.Core.Logging.OwinLogger - Event Id: 0, state: User logged will be logged out due to timeout: nmac93@outlook.com, IP Address: ::1
 2018-07-18 18:52:52,997 [P7992/D2/T1] INFO  Umbraco.Core.CoreBootManager - Umbraco 7.11.1 application starting on DESKTOP-BT7GGVQ
 2018-07-18 18:52:53,019 [P7992/D2/T1] INFO  Umbraco.Core.PluginManager - Determining hash of code files on disk
 2018-07-18 18:52:53,028 [P7992/D2/T1] INFO  Umbraco.Core.PluginManager - Hash determined (took 9ms)
 2018-07-18 18:52:53,102 [P7992/D2/T1] INFO  Umbraco.Core.MainDom - Acquiring MainDom...
 2018-07-18 18:52:53,103 [P7992/D2/T1] INFO  Umbraco.Core.MainDom - Acquired MainDom.
 2018-07-18 18:52:53,108 [P7992/D2/T1] INFO  Umbraco.Core.PluginManager - Resolving umbraco.interfaces.IDiscoverable
 2018-07-18 18:52:53,276 [P7992/D2/T1] INFO  Umbraco.Core.PluginManager - Resolved umbraco.interfaces.IDiscoverable (took 167ms)
 2018-07-18 18:52:53,276 [P7992/D2/T1] INFO  Umbraco.Core.PluginManager - Resolving umbraco.interfaces.IApplicationStartupHandler
 2018-07-18 18:52:53,277 [P7992/D2/T1] INFO  Umbraco.Core.PluginManager - Resolved umbraco.interfaces.IApplicationStartupHandler (took 1ms)
 2018-07-18 18:52:53,322 [P7992/D2/T1] INFO  Umbraco.Core.PluginManager - Resolving umbraco.interfaces.IDiscoverable
 2018-07-18 18:52:53,323 [P7992/D2/T1] INFO  Umbraco.Core.PluginManager - Resolved umbraco.interfaces.IDiscoverable (took 0ms)
 2018-07-18 18:52:53,324 [P7992/D2/T1] INFO  Umbraco.Core.PluginManager - Resolving Umbraco.Core.PropertyEditors.IPropertyEditorValueConverter
 2018-07-18 18:52:53,325 [P7992/D2/T1] INFO  Umbraco.Core.PluginManager - Resolved Umbraco.Core.PropertyEditors.IPropertyEditorValueConverter (took 0ms)
 2018-07-18 18:52:53,326 [P7992/D2/T1] INFO  Umbraco.Core.PluginManager - Resolving umbraco.interfaces.IDiscoverable
 2018-07-18 18:52:53,326 [P7992/D2/T1] INFO  Umbraco.Core.PluginManager - Resolved umbraco.interfaces.IDiscoverable (took 0ms)
 2018-07-18 18:52:53,326 [P7992/D2/T1] INFO  Umbraco.Core.PluginManager - Resolving Umbraco.Core.PropertyEditors.IPropertyValueConverter
 2018-07-18 18:52:53,328 [P7992/D2/T1] INFO  Umbraco.Core.PluginManager - Resolved Umbraco.Core.PropertyEditors.IPropertyValueConverter (took 1ms)
 2018-07-18 18:52:53,343 [P7992/D2/T1] INFO  Umbraco.Core.PluginManager - Resolving umbraco.interfaces.IDiscoverable
 2018-07-18 18:52:53,343 [P7992/D2/T1] INFO  Umbraco.Core.PluginManager - Resolved umbraco.interfaces.IDiscoverable (took 0ms)
 2018-07-18 18:52:53,343 [P7992/D2/T1] INFO  Umbraco.Core.PluginManager - Resolving Umbraco.Web.Mvc.SurfaceController
 2018-07-18 18:52:53,344 [P7992/D2/T1] INFO  Umbraco.Core.PluginManager - Resolved Umbraco.Web.Mvc.SurfaceController (took 0ms)
 2018-07-18 18:52:53,345 [P7992/D2/T1] INFO  Umbraco.Core.PluginManager - Resolving umbraco.interfaces.IDiscoverable
 2018-07-18 18:52:53,346 [P7992/D2/T1] INFO  Umbraco.Core.PluginManager - Resolved umbraco.interfaces.IDiscoverable (took 0ms)
 2018-07-18 18:52:53,346 [P7992/D2/T1] INFO  Umbraco.Core.PluginManager - Resolving Umbraco.Web.WebApi.UmbracoApiController
 2018-07-18 18:52:53,348 [P7992/D2/T1] INFO  Umbraco.Core.PluginManager - Resolved Umbraco.Web.WebApi.UmbracoApiController (took 2ms)
 2018-07-18 18:52:55,002 [P7992/D2/T1] INFO  Umbraco.Core.DatabaseContext - CanConnect = True
 2018-07-18 18:52:55,319 [P7992/D2/T1] INFO  Umbraco.Web.Cache.CacheRefresherEventHandler - Initializing Umbraco internal event handlers for cache refreshing
 2018-07-18 18:52:55,507 [P7992/D2/T1] INFO  Umbraco.Web.Search.ExamineEvents - Initializing Examine and binding to business logic events
 2018-07-18 18:52:55,615 [P7992/D2/T1] INFO  Umbraco.Web.Search.ExamineEvents - Adding examine event handlers for index providers: 3
 2018-07-18 18:52:55,640 [P7992/D2/T1] INFO  Umbraco.Core.CoreBootManager - Umbraco application startup complete (took 2730ms)
 2018-07-18 18:52:55,648 [P7992/D2/T1] INFO  Umbraco.Web.ExamineStartup - Forcing index InternalMemberIndexSet to be unlocked since it was left in a locked state
 2018-07-18 18:52:55,651 [P7992/D2/T1] INFO  Umbraco.Web.ExamineStartup - Forcing index InternalIndexSet to be unlocked since it was left in a locked state
 2018-07-18 18:52:55,656 [P7992/D2/T1] INFO  Umbraco.Web.ExamineStartup - Forcing index ExternalIndexSet to be unlocked since it was left in a locked state
 2018-07-18 18:52:56,961 [P7992/D2/T7] INFO  Umbraco.Core.Sync.ApplicationUrlHelper - New ApplicationUrl detected: http://localhost:58619/umbraco
 2018-07-18 18:52:56,963 [P7992/D2/T7] INFO  Umbraco.Core.Sync.ApplicationUrlHelper - ApplicationUrl: http://localhost:58619/umbraco (UmbracoModule request)
 2018-07-18 18:52:57,761 [P7992/D2/T10] INFO  Umbraco.Core.PluginManager - Resolving umbraco.interfaces.IDiscoverable
 2018-07-18 18:52:57,762 [P7992/D2/T10] INFO  Umbraco.Core.PluginManager - Resolved umbraco.interfaces.IDiscoverable (took 0ms)
 2018-07-18 18:52:57,762 [P7992/D2/T10] INFO  Umbraco.Core.PluginManager - Resolving [Umbraco.Web.Trees.TreeAttribute]Umbraco.Web.Trees.TreeController
 2018-07-18 18:52:57,763 [P7992/D2/T10] INFO  Umbraco.Core.PluginManager - Resolved [Umbraco.Web.Trees.TreeAttribute]Umbraco.Web.Trees.TreeController (took 0ms)
 2018-07-18 18:52:58,054 [P7992/D2/T10] INFO  Umbraco.Core.PluginManager - Resolving umbraco.interfaces.IDiscoverable
 2018-07-18 18:52:58,054 [P7992/D2/T10] INFO  Umbraco.Core.PluginManager - Resolved umbraco.interfaces.IDiscoverable (took 0ms)
 2018-07-18 18:52:58,054 [P7992/D2/T10] INFO  Umbraco.Core.PluginManager - Resolving umbraco.interfaces.IAction
 2018-07-18 18:52:58,055 [P7992/D2/T10] INFO  Umbraco.Core.PluginManager - Resolved umbraco.interfaces.IAction (took 0ms)
 2018-07-18 18:52:58,201 [P7992/D2/T10] INFO  Umbraco.Core.PluginManager - Resolving umbraco.interfaces.IDiscoverable
 2018-07-18 18:52:58,201 [P7992/D2/T10] INFO  Umbraco.Core.PluginManager - Resolved umbraco.interfaces.IDiscoverable (took 0ms)
 2018-07-18 18:52:58,202 [P7992/D2/T10] INFO  Umbraco.Core.PluginManager - Resolving Umbraco.Core.PropertyEditors.IParameterEditor
 2018-07-18 18:52:58,203 [P7992/D2/T10] INFO  Umbraco.Core.PluginManager - Resolved Umbraco.Core.PropertyEditors.IParameterEditor (took 1ms)
 2018-07-18 18:53:05,337 [P7992/D2/T7] INFO  Umbraco.Core.Security.BackOfficeSignInManager - Event Id: 0, state: Login attempt succeeded for username nmac93@outlook.com from IP address ::1
 2018-07-18 18:53:05,339 [P7992/D2/T7] INFO  Umbraco.Core.Security.BackOfficeSignInManager - Event Id: 0, state: User: nmac93@outlook.com logged in from IP address ::1
 2018-07-18 18:53:11,973 [P7992/D2/T10] INFO  Umbraco.Core.PluginManager - Resolving umbraco.interfaces.IDiscoverable
 2018-07-18 18:53:11,973 [P7992/D2/T10] INFO  Umbraco.Core.PluginManager - Resolved umbraco.interfaces.IDiscoverable (took 0ms)
 2018-07-18 18:53:11,973 [P7992/D2/T10] INFO  Umbraco.Core.PluginManager - Resolving umbraco.interfaces.ITree
 2018-07-18 18:53:11,974 [P7992/D2/T10] INFO  Umbraco.Core.PluginManager - Resolved umbraco.interfaces.ITree (took 0ms)
 2018-07-18 18:53:11,987 [P7992/D2/T10] INFO  Umbraco.Core.PluginManager - Resolving umbraco.interfaces.IDiscoverable
 2018-07-18 18:53:11,987 [P7992/D2/T10] INFO  Umbraco.Core.PluginManager - Resolved umbraco.interfaces.IDiscoverable (took 0ms)
 2018-07-18 18:53:11,987 [P7992/D2/T10] INFO  Umbraco.Core.PluginManager - Resolving [Umbraco.Web.Trees.TreeAttribute]Umbraco.Web.Trees.TreeController
 2018-07-18 18:53:11,988 [P7992/D2/T10] INFO  Umbraco.Core.PluginManager - Resolved [Umbraco.Web.Trees.TreeAttribute]Umbraco.Web.Trees.TreeController (took 0ms)
 2018-07-18 18:53:11,991 [P7992/D2/T10] INFO  Umbraco.Core.PluginManager - Resolving umbraco.interfaces.IDiscoverable
 2018-07-18 18:53:11,991 [P7992/D2/T10] INFO  Umbraco.Core.PluginManager - Resolved umbraco.interfaces.IDiscoverable (took 0ms)
 2018-07-18 18:53:11,991 [P7992/D2/T10] INFO  Umbraco.Core.PluginManager - Resolving [umbraco.businesslogic.TreeAttribute]umbraco.interfaces.ITree
 2018-07-18 18:53:11,992 [P7992/D2/T10] INFO  Umbraco.Core.PluginManager - Resolved [umbraco.businesslogic.TreeAttribute]umbraco.interfaces.ITree (took 0ms)
 2018-07-18 18:53:12,007 [P7992/D2/T10] INFO  Umbraco.Core.PluginManager - Resolving umbraco.interfaces.IDiscoverable
 2018-07-18 18:53:12,008 [P7992/D2/T10] INFO  Umbraco.Core.PluginManager - Resolved umbraco.interfaces.IDiscoverable (took 0ms)
 2018-07-18 18:53:12,008 [P7992/D2/T10] INFO  Umbraco.Core.PluginManager - Resolving [umbraco.businesslogic.ApplicationAttribute]umbraco.interfaces.IApplication
 2018-07-18 18:53:12,008 [P7992/D2/T10] INFO  Umbraco.Core.PluginManager - Resolved [umbraco.businesslogic.ApplicationAttribute]umbraco.interfaces.IApplication (took 0ms)
 2018-07-18 18:53:12,209 [P7992/D2/T10] INFO  Umbraco.Core.PluginManager - Resolving umbraco.interfaces.IDiscoverable
 2018-07-18 18:53:12,209 [P7992/D2/T10] INFO  Umbraco.Core.PluginManager - Resolved umbraco.interfaces.IDiscoverable (took 0ms)
 2018-07-18 18:53:12,209 [P7992/D2/T10] INFO  Umbraco.Core.PluginManager - Resolving [Umbraco.Core.Persistence.Mappers.MapperForAttribute]Umbraco.Core.Persistence.Mappers.BaseMapper
 2018-07-18 18:53:12,210 [P7992/D2/T10] INFO  Umbraco.Core.PluginManager - Resolved [Umbraco.Core.Persistence.Mappers.MapperForAttribute]Umbraco.Core.Persistence.Mappers.BaseMapper (took 0ms)
 2018-07-18 18:53:12,564 [P7992/D2/T7] INFO  umbraco.content - Load Xml from file...
 2018-07-18 18:53:12,568 [P7992/D2/T7] INFO  umbraco.content - Loaded Xml from file.
 2018-07-18 18:53:58,117 [P7992/D2/T11] INFO  umbraco.BusinessLogic.Log - Log scrubbed.  Removed all items older than 2018-07-17 18:53:58
 2018-07-18 18:59:18,385 [P11992/D2/T1] INFO  Umbraco.Core.CoreBootManager - Umbraco 7.11.1 application starting on DESKTOP-BT7GGVQ
 2018-07-18 18:59:18,409 [P11992/D2/T1] INFO  Umbraco.Core.PluginManager - Determining hash of code files on disk
 2018-07-18 18:59:18,421 [P11992/D2/T1] INFO  Umbraco.Core.PluginManager - Hash determined (took 12ms)
 2018-07-18 18:59:18,475 [P11992/D2/T1] INFO  Umbraco.Core.MainDom - Acquiring MainDom...
 2018-07-18 18:59:18,478 [P11992/D2/T1] INFO  Umbraco.Core.MainDom - Acquired MainDom.
 2018-07-18 18:59:18,480 [P11992/D2/T1] INFO  Umbraco.Core.PluginManager - Resolving umbraco.interfaces.IDiscoverable
 2018-07-18 18:59:18,657 [P11992/D2/T1] INFO  Umbraco.Core.PluginManager - Resolved umbraco.interfaces.IDiscoverable (took 178ms)
 2018-07-18 18:59:18,657 [P11992/D2/T1] INFO  Umbraco.Core.PluginManager - Resolving umbraco.interfaces.IApplicationStartupHandler
 2018-07-18 18:59:18,658 [P11992/D2/T1] INFO  Umbraco.Core.PluginManager - Resolved umbraco.interfaces.IApplicationStartupHandler (took 1ms)
 2018-07-18 18:59:18,702 [P11992/D2/T1] INFO  Umbraco.Core.PluginManager - Resolving umbraco.interfaces.IDiscoverable
 2018-07-18 18:59:18,702 [P11992/D2/T1] INFO  Umbraco.Core.PluginManager - Resolved umbraco.interfaces.IDiscoverable (took 0ms)
 2018-07-18 18:59:18,703 [P11992/D2/T1] INFO  Umbraco.Core.PluginManager - Resolving Umbraco.Core.PropertyEditors.IPropertyEditorValueConverter
 2018-07-18 18:59:18,703 [P11992/D2/T1] INFO  Umbraco.Core.PluginManager - Resolved Umbraco.Core.PropertyEditors.IPropertyEditorValueConverter (took 0ms)
 2018-07-18 18:59:18,703 [P11992/D2/T1] INFO  Umbraco.Core.PluginManager - Resolving umbraco.interfaces.IDiscoverable
 2018-07-18 18:59:18,704 [P11992/D2/T1] INFO  Umbraco.Core.PluginManager - Resolved umbraco.interfaces.IDiscoverable (took 0ms)
 2018-07-18 18:59:18,704 [P11992/D2/T1] INFO  Umbraco.Core.PluginManager - Resolving Umbraco.Core.PropertyEditors.IPropertyValueConverter
 2018-07-18 18:59:18,705 [P11992/D2/T1] INFO  Umbraco.Core.PluginManager - Resolved Umbraco.Core.PropertyEditors.IPropertyValueConverter (took 1ms)
 2018-07-18 18:59:18,718 [P11992/D2/T1] INFO  Umbraco.Core.PluginManager - Resolving umbraco.interfaces.IDiscoverable
 2018-07-18 18:59:18,718 [P11992/D2/T1] INFO  Umbraco.Core.PluginManager - Resolved umbraco.interfaces.IDiscoverable (took 0ms)
 2018-07-18 18:59:18,718 [P11992/D2/T1] INFO  Umbraco.Core.PluginManager - Resolving Umbraco.Web.Mvc.SurfaceController
 2018-07-18 18:59:18,719 [P11992/D2/T1] INFO  Umbraco.Core.PluginManager - Resolved Umbraco.Web.Mvc.SurfaceController (took 0ms)
 2018-07-18 18:59:18,719 [P11992/D2/T1] INFO  Umbraco.Core.PluginManager - Resolving umbraco.interfaces.IDiscoverable
 2018-07-18 18:59:18,720 [P11992/D2/T1] INFO  Umbraco.Core.PluginManager - Resolved umbraco.interfaces.IDiscoverable (took 0ms)
 2018-07-18 18:59:18,720 [P11992/D2/T1] INFO  Umbraco.Core.PluginManager - Resolving Umbraco.Web.WebApi.UmbracoApiController
 2018-07-18 18:59:18,720 [P11992/D2/T1] INFO  Umbraco.Core.PluginManager - Resolved Umbraco.Web.WebApi.UmbracoApiController (took 0ms)
 2018-07-18 18:59:20,282 [P11992/D2/T1] INFO  Umbraco.Core.DatabaseContext - CanConnect = True
 2018-07-18 18:59:20,624 [P11992/D2/T1] INFO  Umbraco.Web.Cache.CacheRefresherEventHandler - Initializing Umbraco internal event handlers for cache refreshing
 2018-07-18 18:59:20,821 [P11992/D2/T1] INFO  Umbraco.Web.Search.ExamineEvents - Initializing Examine and binding to business logic events
 2018-07-18 18:59:20,930 [P11992/D2/T1] INFO  Umbraco.Web.Search.ExamineEvents - Adding examine event handlers for index providers: 3
 2018-07-18 18:59:20,955 [P11992/D2/T1] INFO  Umbraco.Core.CoreBootManager - Umbraco application startup complete (took 2655ms)
 2018-07-18 18:59:22,188 [P11992/D2/T7] INFO  Umbraco.Core.Sync.ApplicationUrlHelper - New ApplicationUrl detected: http://localhost:58619/umbraco
 2018-07-18 18:59:22,190 [P11992/D2/T7] INFO  Umbraco.Core.Sync.ApplicationUrlHelper - ApplicationUrl: http://localhost:58619/umbraco (UmbracoModule request)
 2018-07-18 18:59:25,690 [P11992/D2/T7] INFO  umbraco.content - Load Xml from file...
 2018-07-18 18:59:25,693 [P11992/D2/T7] INFO  umbraco.content - Loaded Xml from file.
 2018-07-18 18:59:26,291 [P11992/D2/T7] INFO  Umbraco.Core.PluginManager - Resolving umbraco.interfaces.IDiscoverable
 2018-07-18 18:59:26,291 [P11992/D2/T7] INFO  Umbraco.Core.PluginManager - Resolved umbraco.interfaces.IDiscoverable (took 0ms)
 2018-07-18 18:59:26,291 [P11992/D2/T7] INFO  Umbraco.Core.PluginManager - Resolving Umbraco.Core.PropertyEditors.IParameterEditor
 2018-07-18 18:59:26,292 [P11992/D2/T7] INFO  Umbraco.Core.PluginManager - Resolved Umbraco.Core.PropertyEditors.IParameterEditor (took 0ms)
 2018-07-18 18:59:27,216 [P11992/D2/T7] ERROR Umbraco.Core.UmbracoApplicationBase - An unhandled exception occurred
System.Web.HttpParseException (0x80004005): Expected a "{" but found a "<".  Block statements must be enclosed in "{" and "}".  You cannot use single-statement control-flow statements in CSHTML pages. For example, the following is not allowed:

@if(isLoggedIn)
    <p>Hello, @user</p>

Instead, wrap the contents of the block in "{}":

@if(isLoggedIn) {
    <p>Hello, @user</p>
}

   at System.Web.WebPages.Razor.RazorBuildProvider.EnsureGeneratedCode()
   at System.Web.WebPages.Razor.RazorBuildProvider.get_CodeCompilerType()
   at System.Web.Compilation.BuildProvider.GetCompilerTypeFromBuildProvider(BuildProvider buildProvider)
   at System.Web.Compilation.BuildProvidersCompiler.ProcessBuildProviders()
   at System.Web.Compilation.BuildProvidersCompiler.PerformBuild()
   at System.Web.Compilation.BuildManager.CompileWebFile(VirtualPath virtualPath)
   at System.Web.Compilation.BuildManager.GetVPathBuildResultInternal(VirtualPath virtualPath, Boolean noBuild, Boolean allowCrossApp, Boolean allowBuildInPrecompile, Boolean throwIfNotFound, Boolean ensureIsUpToDate)
   at System.Web.Compilation.BuildManager.GetVPathBuildResultWithNoAssert(HttpContext context, VirtualPath virtualPath, Boolean noBuild, Boolean allowCrossApp, Boolean allowBuildInPrecompile, Boolean throwIfNotFound, Boolean ensureIsUpToDate)
   at System.Web.Compilation.BuildManager.GetVirtualPathObjectFactory(VirtualPath virtualPath, HttpContext context, Boolean allowCrossApp, Boolean throwIfNotFound)
   at System.Web.Compilation.BuildManager.GetCompiledType(VirtualPath virtualPath)
   at System.Web.Compilation.BuildManager.GetCompiledType(String virtualPath)
   at System.Web.Mvc.BuildManagerWrapper.System.Web.Mvc.IBuildManager.GetCompiledType(String virtualPath)
   at System.Web.Mvc.BuildManagerCompiledView.Render(ViewContext viewContext, TextWriter writer)
   at Umbraco.Core.Profiling.ProfilingView.Render(ViewContext viewContext, TextWriter writer)
   at System.Web.Mvc.ViewResultBase.ExecuteResult(ControllerContext context)
   at System.Web.Mvc.ControllerActionInvoker.InvokeActionResult(ControllerContext controllerContext, ActionResult actionResult)
   at System.Web.Mvc.ControllerActionInvoker.InvokeActionResultFilterRecursive(IList`1 filters, Int32 filterIndex, ResultExecutingContext preContext, ControllerContext controllerContext, ActionResult actionResult)
   at System.Web.Mvc.ControllerActionInvoker.InvokeActionResultFilterRecursive(IList`1 filters, Int32 filterIndex, ResultExecutingContext preContext, ControllerContext controllerContext, ActionResult actionResult)
   at System.Web.Mvc.ControllerActionInvoker.InvokeActionResultFilterRecursive(IList`1 filters, Int32 filterIndex, ResultExecutingContext preContext, ControllerContext controllerContext, ActionResult actionResult)
   at System.Web.Mvc.ControllerActionInvoker.InvokeActionResultFilterRecursive(IList`1 filters, Int32 filterIndex, ResultExecutingContext preContext, ControllerContext controllerContext, ActionResult actionResult)
   at System.Web.Mvc.ControllerActionInvoker.InvokeActionResultWithFilters(ControllerContext controllerContext, IList`1 filters, ActionResult actionResult)
   at System.Web.Mvc.Async.AsyncControllerActionInvoker.<>c__DisplayClass21.<>c__DisplayClass2b.<BeginInvokeAction>b__1c()
   at System.Web.Mvc.Async.AsyncControllerActionInvoker.<>c__DisplayClass21.<BeginInvokeAction>b__1e(IAsyncResult asyncResult)
   at System.Web.Mvc.Async.AsyncResultWrapper.WrappedAsyncResult`1.CallEndDelegate(IAsyncResult asyncResult)
   at System.Web.Mvc.Async.AsyncResultWrapper.WrappedAsyncResultBase`1.End()
   at System.Web.Mvc.Async.AsyncControllerActionInvoker.EndInvokeAction(IAsyncResult asyncResult)
   at System.Web.Mvc.Controller.<BeginExecuteCore>b__1d(IAsyncResult asyncResult, ExecuteCoreState innerState)
   at System.Web.Mvc.Async.AsyncResultWrapper.WrappedAsyncVoid`1.CallEndDelegate(IAsyncResult asyncResult)
   at System.Web.Mvc.Async.AsyncResultWrapper.WrappedAsyncResultBase`1.End()
   at System.Web.Mvc.Controller.EndExecuteCore(IAsyncResult asyncResult)
   at System.Web.Mvc.Controller.<BeginExecute>b__15(IAsyncResult asyncResult, Controller controller)
   at System.Web.Mvc.Async.AsyncResultWrapper.WrappedAsyncVoid`1.CallEndDelegate(IAsyncResult asyncResult)
   at System.Web.Mvc.Async.AsyncResultWrapper.WrappedAsyncResultBase`1.End()
   at System.Web.Mvc.Controller.EndExecute(IAsyncResult asyncResult)
   at System.Web.Mvc.Controller.System.Web.Mvc.Async.IAsyncController.EndExecute(IAsyncResult asyncResult)
   at System.Web.Mvc.MvcHandler.<BeginProcessRequest>b__5(IAsyncResult asyncResult, ProcessRequestState innerState)
   at System.Web.Mvc.Async.AsyncResultWrapper.WrappedAsyncVoid`1.CallEndDelegate(IAsyncResult asyncResult)
   at System.Web.Mvc.Async.AsyncResultWrapper.WrappedAsyncResultBase`1.End()
   at System.Web.Mvc.MvcHandler.EndProcessRequest(IAsyncResult asyncResult)
   at System.Web.Mvc.MvcHandler.System.Web.IHttpAsyncHandler.EndProcessRequest(IAsyncResult result)
   at System.Web.HttpApplication.CallHandlerExecutionStep.System.Web.HttpApplication.IExecutionStep.Execute()
   at System.Web.HttpApplication.ExecuteStepImpl(IExecutionStep step)
   at System.Web.HttpApplication.ExecuteStep(IExecutionStep step, Boolean& completedSynchronously)
 2018-07-18 19:00:29,694 [P672/D2/T1] INFO  Umbraco.Core.CoreBootManager - Umbraco 7.11.1 application starting on DESKTOP-BT7GGVQ
 2018-07-18 19:00:29,716 [P672/D2/T1] INFO  Umbraco.Core.PluginManager - Determining hash of code files on disk
 2018-07-18 19:00:29,726 [P672/D2/T1] INFO  Umbraco.Core.PluginManager - Hash determined (took 10ms)
 2018-07-18 19:00:29,782 [P672/D2/T1] INFO  Umbraco.Core.MainDom - Acquiring MainDom...
 2018-07-18 19:00:29,784 [P672/D2/T1] INFO  Umbraco.Core.MainDom - Acquired MainDom.
 2018-07-18 19:00:29,785 [P672/D2/T1] INFO  Umbraco.Core.PluginManager - Resolving umbraco.interfaces.IDiscoverable
 2018-07-18 19:00:29,968 [P672/D2/T1] INFO  Umbraco.Core.PluginManager - Resolved umbraco.interfaces.IDiscoverable (took 182ms)
 2018-07-18 19:00:29,969 [P672/D2/T1] INFO  Umbraco.Core.PluginManager - Resolving umbraco.interfaces.IApplicationStartupHandler
 2018-07-18 19:00:29,970 [P672/D2/T1] INFO  Umbraco.Core.PluginManager - Resolved umbraco.interfaces.IApplicationStartupHandler (took 1ms)
 2018-07-18 19:00:30,016 [P672/D2/T1] INFO  Umbraco.Core.PluginManager - Resolving umbraco.interfaces.IDiscoverable
 2018-07-18 19:00:30,016 [P672/D2/T1] INFO  Umbraco.Core.PluginManager - Resolved umbraco.interfaces.IDiscoverable (took 0ms)
 2018-07-18 19:00:30,017 [P672/D2/T1] INFO  Umbraco.Core.PluginManager - Resolving Umbraco.Core.PropertyEditors.IPropertyEditorValueConverter
 2018-07-18 19:00:30,017 [P672/D2/T1] INFO  Umbraco.Core.PluginManager - Resolved Umbraco.Core.PropertyEditors.IPropertyEditorValueConverter (took 0ms)
 2018-07-18 19:00:30,018 [P672/D2/T1] INFO  Umbraco.Core.PluginManager - Resolving umbraco.interfaces.IDiscoverable
 2018-07-18 19:00:30,018 [P672/D2/T1] INFO  Umbraco.Core.PluginManager - Resolved umbraco.interfaces.IDiscoverable (took 0ms)
 2018-07-18 19:00:30,018 [P672/D2/T1] INFO  Umbraco.Core.PluginManager - Resolving Umbraco.Core.PropertyEditors.IPropertyValueConverter
 2018-07-18 19:00:30,019 [P672/D2/T1] INFO  Umbraco.Core.PluginManager - Resolved Umbraco.Core.PropertyEditors.IPropertyValueConverter (took 1ms)
 2018-07-18 19:00:30,033 [P672/D2/T1] INFO  Umbraco.Core.PluginManager - Resolving umbraco.interfaces.IDiscoverable
 2018-07-18 19:00:30,034 [P672/D2/T1] INFO  Umbraco.Core.PluginManager - Resolved umbraco.interfaces.IDiscoverable (took 0ms)
 2018-07-18 19:00:30,034 [P672/D2/T1] INFO  Umbraco.Core.PluginManager - Resolving Umbraco.Web.Mvc.SurfaceController
 2018-07-18 19:00:30,034 [P672/D2/T1] INFO  Umbraco.Core.PluginManager - Resolved Umbraco.Web.Mvc.SurfaceController (took 0ms)
 2018-07-18 19:00:30,035 [P672/D2/T1] INFO  Umbraco.Core.PluginManager - Resolving umbraco.interfaces.IDiscoverable
 2018-07-18 19:00:30,035 [P672/D2/T1] INFO  Umbraco.Core.PluginManager - Resolved umbraco.interfaces.IDiscoverable (took 0ms)
 2018-07-18 19:00:30,035 [P672/D2/T1] INFO  Umbraco.Core.PluginManager - Resolving Umbraco.Web.WebApi.UmbracoApiController
 2018-07-18 19:00:30,036 [P672/D2/T1] INFO  Umbraco.Core.PluginManager - Resolved Umbraco.Web.WebApi.UmbracoApiController (took 1ms)
 2018-07-18 19:00:31,661 [P672/D2/T1] INFO  Umbraco.Core.DatabaseContext - CanConnect = True
 2018-07-18 19:00:31,991 [P672/D2/T1] INFO  Umbraco.Web.Cache.CacheRefresherEventHandler - Initializing Umbraco internal event handlers for cache refreshing
 2018-07-18 19:00:32,178 [P672/D2/T1] INFO  Umbraco.Web.Search.ExamineEvents - Initializing Examine and binding to business logic events
 2018-07-18 19:00:32,295 [P672/D2/T1] INFO  Umbraco.Web.Search.ExamineEvents - Adding examine event handlers for index providers: 3
 2018-07-18 19:00:32,311 [P672/D2/T1] INFO  Umbraco.Core.CoreBootManager - Umbraco application startup complete (took 2706ms)
 2018-07-18 19:00:33,541 [P672/D2/T7] INFO  Umbraco.Core.Sync.ApplicationUrlHelper - New ApplicationUrl detected: http://localhost:58619/umbraco
 2018-07-18 19:00:33,542 [P672/D2/T7] INFO  Umbraco.Core.Sync.ApplicationUrlHelper - ApplicationUrl: http://localhost:58619/umbraco (UmbracoModule request)
 2018-07-18 19:00:34,025 [P672/D2/T10] INFO  umbraco.content - Load Xml from file...
 2018-07-18 19:00:34,028 [P672/D2/T10] INFO  umbraco.content - Loaded Xml from file.
 2018-07-18 19:00:34,607 [P672/D2/T10] INFO  Umbraco.Core.PluginManager - Resolving umbraco.interfaces.IDiscoverable
 2018-07-18 19:00:34,607 [P672/D2/T10] INFO  Umbraco.Core.PluginManager - Resolved umbraco.interfaces.IDiscoverable (took 0ms)
 2018-07-18 19:00:34,607 [P672/D2/T10] INFO  Umbraco.Core.PluginManager - Resolving Umbraco.Core.PropertyEditors.IParameterEditor
 2018-07-18 19:00:34,608 [P672/D2/T10] INFO  Umbraco.Core.PluginManager - Resolved Umbraco.Core.PropertyEditors.IParameterEditor (took 0ms)
 2018-07-18 19:00:36,588 [P672/D2/T7] INFO  Umbraco.Core.PluginManager - Resolving umbraco.interfaces.IDiscoverable
 2018-07-18 19:00:36,588 [P672/D2/T7] INFO  Umbraco.Core.PluginManager - Resolved umbraco.interfaces.IDiscoverable (took 0ms)
 2018-07-18 19:00:36,588 [P672/D2/T7] INFO  Umbraco.Core.PluginManager - Resolving Umbraco.Core.Deploy.IServiceConnector
 2018-07-18 19:00:36,597 [P672/D2/T7] INFO  Umbraco.Core.PluginManager - Resolved Umbraco.Core.Deploy.IServiceConnector (took 8ms)
 2018-07-18 19:00:36,597 [P672/D2/T10] INFO  Umbraco.Core.PluginManager - Resolving umbraco.interfaces.IDiscoverable
 2018-07-18 19:00:36,597 [P672/D2/T10] INFO  Umbraco.Core.PluginManager - Resolved umbraco.interfaces.IDiscoverable (took 0ms)
 2018-07-18 19:00:36,597 [P672/D2/T10] INFO  Umbraco.Core.PluginManager - Resolving Umbraco.Core.Deploy.IServiceConnector
 2018-07-18 19:00:36,597 [P672/D2/T10] INFO  Umbraco.Core.PluginManager - Resolved Umbraco.Core.Deploy.IServiceConnector (took 0ms)
 2018-07-18 19:01:34,064 [P672/D2/T8] INFO  Umbraco.Core.PluginManager - Resolving umbraco.interfaces.IDiscoverable
 2018-07-18 19:01:34,064 [P672/D2/T8] INFO  Umbraco.Core.PluginManager - Resolved umbraco.interfaces.IDiscoverable (took 0ms)
 2018-07-18 19:01:34,064 [P672/D2/T8] INFO  Umbraco.Core.PluginManager - Resolving [Umbraco.Core.Persistence.Mappers.MapperForAttribute]Umbraco.Core.Persistence.Mappers.BaseMapper
 2018-07-18 19:01:34,065 [P672/D2/T8] INFO  Umbraco.Core.PluginManager - Resolved [Umbraco.Core.Persistence.Mappers.MapperForAttribute]Umbraco.Core.Persistence.Mappers.BaseMapper (took 0ms)
 2018-07-18 19:01:34,106 [P672/D2/T12] INFO  umbraco.BusinessLogic.Log - Log scrubbed.  Removed all items older than 2018-07-17 19:01:34
 2018-07-18 19:21:35,590 [P10324/D2/T1] INFO  Umbraco.Core.CoreBootManager - Umbraco 7.11.1 application starting on DESKTOP-BT7GGVQ
 2018-07-18 19:21:35,612 [P10324/D2/T1] INFO  Umbraco.Core.PluginManager - Determining hash of code files on disk
 2018-07-18 19:21:35,622 [P10324/D2/T1] INFO  Umbraco.Core.PluginManager - Hash determined (took 9ms)
 2018-07-18 19:21:35,680 [P10324/D2/T1] INFO  Umbraco.Core.MainDom - Acquiring MainDom...
 2018-07-18 19:21:35,684 [P10324/D2/T1] INFO  Umbraco.Core.MainDom - Acquired MainDom.
 2018-07-18 19:21:35,685 [P10324/D2/T1] INFO  Umbraco.Core.PluginManager - Resolving umbraco.interfaces.IDiscoverable
 2018-07-18 19:21:35,865 [P10324/D2/T1] INFO  Umbraco.Core.PluginManager - Resolved umbraco.interfaces.IDiscoverable (took 179ms)
 2018-07-18 19:21:35,865 [P10324/D2/T1] INFO  Umbraco.Core.PluginManager - Resolving umbraco.interfaces.IApplicationStartupHandler
 2018-07-18 19:21:35,866 [P10324/D2/T1] INFO  Umbraco.Core.PluginManager - Resolved umbraco.interfaces.IApplicationStartupHandler (took 1ms)
 2018-07-18 19:21:35,909 [P10324/D2/T1] INFO  Umbraco.Core.PluginManager - Resolving umbraco.interfaces.IDiscoverable
 2018-07-18 19:21:35,909 [P10324/D2/T1] INFO  Umbraco.Core.PluginManager - Resolved umbraco.interfaces.IDiscoverable (took 0ms)
 2018-07-18 19:21:35,909 [P10324/D2/T1] INFO  Umbraco.Core.PluginManager - Resolving Umbraco.Core.PropertyEditors.IPropertyEditorValueConverter
 2018-07-18 19:21:35,910 [P10324/D2/T1] INFO  Umbraco.Core.PluginManager - Resolved Umbraco.Core.PropertyEditors.IPropertyEditorValueConverter (took 0ms)
 2018-07-18 19:21:35,910 [P10324/D2/T1] INFO  Umbraco.Core.PluginManager - Resolving umbraco.interfaces.IDiscoverable
 2018-07-18 19:21:35,910 [P10324/D2/T1] INFO  Umbraco.Core.PluginManager - Resolved umbraco.interfaces.IDiscoverable (took 0ms)
 2018-07-18 19:21:35,911 [P10324/D2/T1] INFO  Umbraco.Core.PluginManager - Resolving Umbraco.Core.PropertyEditors.IPropertyValueConverter
 2018-07-18 19:21:35,912 [P10324/D2/T1] INFO  Umbraco.Core.PluginManager - Resolved Umbraco.Core.PropertyEditors.IPropertyValueConverter (took 1ms)
 2018-07-18 19:21:35,924 [P10324/D2/T1] INFO  Umbraco.Core.PluginManager - Resolving umbraco.interfaces.IDiscoverable
 2018-07-18 19:21:35,925 [P10324/D2/T1] INFO  Umbraco.Core.PluginManager - Resolved umbraco.interfaces.IDiscoverable (took 0ms)
 2018-07-18 19:21:35,925 [P10324/D2/T1] INFO  Umbraco.Core.PluginManager - Resolving Umbraco.Web.Mvc.SurfaceController
 2018-07-18 19:21:35,925 [P10324/D2/T1] INFO  Umbraco.Core.PluginManager - Resolved Umbraco.Web.Mvc.SurfaceController (took 0ms)
 2018-07-18 19:21:35,926 [P10324/D2/T1] INFO  Umbraco.Core.PluginManager - Resolving umbraco.interfaces.IDiscoverable
 2018-07-18 19:21:35,926 [P10324/D2/T1] INFO  Umbraco.Core.PluginManager - Resolved umbraco.interfaces.IDiscoverable (took 0ms)
 2018-07-18 19:21:35,926 [P10324/D2/T1] INFO  Umbraco.Core.PluginManager - Resolving Umbraco.Web.WebApi.UmbracoApiController
 2018-07-18 19:21:35,927 [P10324/D2/T1] INFO  Umbraco.Core.PluginManager - Resolved Umbraco.Web.WebApi.UmbracoApiController (took 0ms)
 2018-07-18 19:21:37,515 [P10324/D2/T1] INFO  Umbraco.Core.DatabaseContext - CanConnect = True
 2018-07-18 19:21:37,834 [P10324/D2/T1] INFO  Umbraco.Web.Cache.CacheRefresherEventHandler - Initializing Umbraco internal event handlers for cache refreshing
 2018-07-18 19:21:38,023 [P10324/D2/T1] INFO  Umbraco.Web.Search.ExamineEvents - Initializing Examine and binding to business logic events
 2018-07-18 19:21:38,129 [P10324/D2/T1] INFO  Umbraco.Web.Search.ExamineEvents - Adding examine event handlers for index providers: 3
 2018-07-18 19:21:38,159 [P10324/D2/T1] INFO  Umbraco.Core.CoreBootManager - Umbraco application startup complete (took 2677ms)
 2018-07-18 19:21:39,465 [P10324/D2/T7] INFO  Umbraco.Core.Sync.ApplicationUrlHelper - New ApplicationUrl detected: http://localhost:58619/umbraco
 2018-07-18 19:21:39,466 [P10324/D2/T7] INFO  Umbraco.Core.Sync.ApplicationUrlHelper - ApplicationUrl: http://localhost:58619/umbraco (UmbracoModule request)
 2018-07-18 19:21:42,377 [P10324/D2/T7] INFO  Umbraco.Core.PluginManager - Resolving umbraco.interfaces.IDiscoverable
 2018-07-18 19:21:42,378 [P10324/D2/T7] INFO  Umbraco.Core.PluginManager - Resolved umbraco.interfaces.IDiscoverable (took 0ms)
 2018-07-18 19:21:42,378 [P10324/D2/T7] INFO  Umbraco.Core.PluginManager - Resolving [Umbraco.Web.Trees.TreeAttribute]Umbraco.Web.Trees.TreeController
 2018-07-18 19:21:42,386 [P10324/D2/T7] INFO  Umbraco.Core.PluginManager - Resolved [Umbraco.Web.Trees.TreeAttribute]Umbraco.Web.Trees.TreeController (took 8ms)
 2018-07-18 19:21:42,637 [P10324/D2/T11] INFO  Umbraco.Core.PluginManager - Resolving umbraco.interfaces.IDiscoverable
 2018-07-18 19:21:42,637 [P10324/D2/T11] INFO  Umbraco.Core.PluginManager - Resolved umbraco.interfaces.IDiscoverable (took 0ms)
 2018-07-18 19:21:42,637 [P10324/D2/T11] INFO  Umbraco.Core.PluginManager - Resolving umbraco.interfaces.IAction
 2018-07-18 19:21:42,661 [P10324/D2/T11] INFO  Umbraco.Core.PluginManager - Resolved umbraco.interfaces.IAction (took 23ms)
 2018-07-18 19:21:42,738 [P10324/D2/T11] INFO  Umbraco.Core.PluginManager - Resolving umbraco.interfaces.IDiscoverable
 2018-07-18 19:21:42,739 [P10324/D2/T11] INFO  Umbraco.Core.PluginManager - Resolved umbraco.interfaces.IDiscoverable (took 0ms)
 2018-07-18 19:21:42,739 [P10324/D2/T11] INFO  Umbraco.Core.PluginManager - Resolving Umbraco.Core.PropertyEditors.IParameterEditor
 2018-07-18 19:21:42,740 [P10324/D2/T11] INFO  Umbraco.Core.PluginManager - Resolved Umbraco.Core.PropertyEditors.IParameterEditor (took 0ms)
 2018-07-18 19:21:52,404 [P10324/D2/T7] INFO  Umbraco.Core.Security.BackOfficeSignInManager - Event Id: 0, state: Login attempt succeeded for username nmac93@outlook.com from IP address ::1
 2018-07-18 19:21:52,406 [P10324/D2/T7] INFO  Umbraco.Core.Security.BackOfficeSignInManager - Event Id: 0, state: User: nmac93@outlook.com logged in from IP address ::1
 2018-07-18 19:21:54,099 [P10324/D2/T7] INFO  Umbraco.Core.PluginManager - Resolving umbraco.interfaces.IDiscoverable
 2018-07-18 19:21:54,100 [P10324/D2/T7] INFO  Umbraco.Core.PluginManager - Resolved umbraco.interfaces.IDiscoverable (took 0ms)
 2018-07-18 19:21:54,101 [P10324/D2/T7] INFO  Umbraco.Core.PluginManager - Resolving umbraco.interfaces.ITree
 2018-07-18 19:21:54,107 [P10324/D2/T7] INFO  Umbraco.Core.PluginManager - Resolved umbraco.interfaces.ITree (took 5ms)
 2018-07-18 19:21:54,120 [P10324/D2/T7] INFO  Umbraco.Core.PluginManager - Resolving umbraco.interfaces.IDiscoverable
 2018-07-18 19:21:54,121 [P10324/D2/T7] INFO  Umbraco.Core.PluginManager - Resolved umbraco.interfaces.IDiscoverable (took 0ms)
 2018-07-18 19:21:54,121 [P10324/D2/T7] INFO  Umbraco.Core.PluginManager - Resolving [Umbraco.Web.Trees.TreeAttribute]Umbraco.Web.Trees.TreeController
 2018-07-18 19:21:54,121 [P10324/D2/T7] INFO  Umbraco.Core.PluginManager - Resolved [Umbraco.Web.Trees.TreeAttribute]Umbraco.Web.Trees.TreeController (took 0ms)
 2018-07-18 19:21:54,124 [P10324/D2/T7] INFO  Umbraco.Core.PluginManager - Resolving umbraco.interfaces.IDiscoverable
 2018-07-18 19:21:54,124 [P10324/D2/T7] INFO  Umbraco.Core.PluginManager - Resolved umbraco.interfaces.IDiscoverable (took 0ms)
 2018-07-18 19:21:54,124 [P10324/D2/T7] INFO  Umbraco.Core.PluginManager - Resolving [umbraco.businesslogic.TreeAttribute]umbraco.interfaces.ITree
 2018-07-18 19:21:54,129 [P10324/D2/T7] INFO  Umbraco.Core.PluginManager - Resolved [umbraco.businesslogic.TreeAttribute]umbraco.interfaces.ITree (took 4ms)
 2018-07-18 19:21:54,146 [P10324/D2/T7] INFO  Umbraco.Core.PluginManager - Resolving umbraco.interfaces.IDiscoverable
 2018-07-18 19:21:54,147 [P10324/D2/T7] INFO  Umbraco.Core.PluginManager - Resolved umbraco.interfaces.IDiscoverable (took 0ms)
 2018-07-18 19:21:54,147 [P10324/D2/T7] INFO  Umbraco.Core.PluginManager - Resolving [umbraco.businesslogic.ApplicationAttribute]umbraco.interfaces.IApplication
 2018-07-18 19:21:54,153 [P10324/D2/T7] INFO  Umbraco.Core.PluginManager - Resolved [umbraco.businesslogic.ApplicationAttribute]umbraco.interfaces.IApplication (took 6ms)
 2018-07-18 19:21:54,391 [P10324/D2/T11] INFO  Umbraco.Core.PluginManager - Resolving umbraco.interfaces.IDiscoverable
 2018-07-18 19:21:54,392 [P10324/D2/T11] INFO  Umbraco.Core.PluginManager - Resolved umbraco.interfaces.IDiscoverable (took 0ms)
 2018-07-18 19:21:54,394 [P10324/D2/T11] INFO  Umbraco.Core.PluginManager - Resolving [Umbraco.Core.Persistence.Mappers.MapperForAttribute]Umbraco.Core.Persistence.Mappers.BaseMapper
 2018-07-18 19:21:54,400 [P10324/D2/T11] INFO  Umbraco.Core.PluginManager - Resolved [Umbraco.Core.Persistence.Mappers.MapperForAttribute]Umbraco.Core.Persistence.Mappers.BaseMapper (took 6ms)
 2018-07-18 19:21:54,750 [P10324/D2/T14] INFO  umbraco.content - Load Xml from file...
 2018-07-18 19:21:54,754 [P10324/D2/T14] INFO  umbraco.content - Loaded Xml from file.
 2018-07-18 19:22:43,227 [P10324/D2/T10] INFO  umbraco.BusinessLogic.Log - Log scrubbed.  Removed all items older than 2018-07-17 19:22:43
 2018-07-18 19:23:04,817 [P15380/D2/T1] INFO  Umbraco.Core.CoreBootManager - Umbraco 7.11.1 application starting on DESKTOP-BT7GGVQ
 2018-07-18 19:23:04,841 [P15380/D2/T1] INFO  Umbraco.Core.PluginManager - Determining hash of code files on disk
 2018-07-18 19:23:04,855 [P15380/D2/T1] INFO  Umbraco.Core.PluginManager - Hash determined (took 13ms)
 2018-07-18 19:23:04,943 [P15380/D2/T1] INFO  Umbraco.Core.MainDom - Acquiring MainDom...
 2018-07-18 19:23:04,944 [P15380/D2/T1] INFO  Umbraco.Core.MainDom - Acquired MainDom.
 2018-07-18 19:23:04,946 [P15380/D2/T1] INFO  Umbraco.Core.PluginManager - Resolving umbraco.interfaces.IDiscoverable
 2018-07-18 19:23:05,169 [P15380/D2/T1] INFO  Umbraco.Core.PluginManager - Resolved umbraco.interfaces.IDiscoverable (took 224ms)
 2018-07-18 19:23:05,170 [P15380/D2/T1] INFO  Umbraco.Core.PluginManager - Resolving umbraco.interfaces.IApplicationStartupHandler
 2018-07-18 19:23:05,171 [P15380/D2/T1] INFO  Umbraco.Core.PluginManager - Resolved umbraco.interfaces.IApplicationStartupHandler (took 1ms)
 2018-07-18 19:23:05,217 [P15380/D2/T1] INFO  Umbraco.Core.PluginManager - Resolving umbraco.interfaces.IDiscoverable
 2018-07-18 19:23:05,218 [P15380/D2/T1] INFO  Umbraco.Core.PluginManager - Resolved umbraco.interfaces.IDiscoverable (took 0ms)
 2018-07-18 19:23:05,218 [P15380/D2/T1] INFO  Umbraco.Core.PluginManager - Resolving Umbraco.Core.PropertyEditors.IPropertyEditorValueConverter
 2018-07-18 19:23:05,219 [P15380/D2/T1] INFO  Umbraco.Core.PluginManager - Resolved Umbraco.Core.PropertyEditors.IPropertyEditorValueConverter (took 0ms)
 2018-07-18 19:23:05,220 [P15380/D2/T1] INFO  Umbraco.Core.PluginManager - Resolving umbraco.interfaces.IDiscoverable
 2018-07-18 19:23:05,221 [P15380/D2/T1] INFO  Umbraco.Core.PluginManager - Resolved umbraco.interfaces.IDiscoverable (took 0ms)
 2018-07-18 19:23:05,221 [P15380/D2/T1] INFO  Umbraco.Core.PluginManager - Resolving Umbraco.Core.PropertyEditors.IPropertyValueConverter
 2018-07-18 19:23:05,222 [P15380/D2/T1] INFO  Umbraco.Core.PluginManager - Resolved Umbraco.Core.PropertyEditors.IPropertyValueConverter (took 1ms)
 2018-07-18 19:23:05,239 [P15380/D2/T1] INFO  Umbraco.Core.PluginManager - Resolving umbraco.interfaces.IDiscoverable
 2018-07-18 19:23:05,239 [P15380/D2/T1] INFO  Umbraco.Core.PluginManager - Resolved umbraco.interfaces.IDiscoverable (took 0ms)
 2018-07-18 19:23:05,239 [P15380/D2/T1] INFO  Umbraco.Core.PluginManager - Resolving Umbraco.Web.Mvc.SurfaceController
 2018-07-18 19:23:05,240 [P15380/D2/T1] INFO  Umbraco.Core.PluginManager - Resolved Umbraco.Web.Mvc.SurfaceController (took 0ms)
 2018-07-18 19:23:05,241 [P15380/D2/T1] INFO  Umbraco.Core.PluginManager - Resolving umbraco.interfaces.IDiscoverable
 2018-07-18 19:23:05,241 [P15380/D2/T1] INFO  Umbraco.Core.PluginManager - Resolved umbraco.interfaces.IDiscoverable (took 0ms)
 2018-07-18 19:23:05,241 [P15380/D2/T1] INFO  Umbraco.Core.PluginManager - Resolving Umbraco.Web.WebApi.UmbracoApiController
 2018-07-18 19:23:05,242 [P15380/D2/T1] INFO  Umbraco.Core.PluginManager - Resolved Umbraco.Web.WebApi.UmbracoApiController (took 0ms)
 2018-07-18 19:23:06,966 [P15380/D2/T1] INFO  Umbraco.Core.DatabaseContext - CanConnect = True
 2018-07-18 19:23:07,300 [P15380/D2/T1] INFO  Umbraco.Web.Cache.CacheRefresherEventHandler - Initializing Umbraco internal event handlers for cache refreshing
 2018-07-18 19:23:07,582 [P15380/D2/T1] INFO  Umbraco.Web.Search.ExamineEvents - Initializing Examine and binding to business logic events
 2018-07-18 19:23:07,761 [P15380/D2/T1] INFO  Umbraco.Web.Search.ExamineEvents - Adding examine event handlers for index providers: 3
 2018-07-18 19:23:07,777 [P15380/D2/T1] INFO  Umbraco.Core.CoreBootManager - Umbraco application startup complete (took 3060ms)
 2018-07-18 19:23:09,233 [P15380/D2/T7] INFO  Umbraco.Core.Sync.ApplicationUrlHelper - New ApplicationUrl detected: http://localhost:58619/umbraco
 2018-07-18 19:23:09,236 [P15380/D2/T7] INFO  Umbraco.Core.Sync.ApplicationUrlHelper - ApplicationUrl: http://localhost:58619/umbraco (UmbracoModule request)
 2018-07-18 19:23:24,744 [P15380/D2/T10] INFO  umbraco.content - Load Xml from file...
 2018-07-18 19:23:24,748 [P15380/D2/T10] INFO  umbraco.content - Loaded Xml from file.
 2018-07-18 19:23:25,378 [P15380/D2/T10] INFO  Umbraco.Core.PluginManager - Resolving umbraco.interfaces.IDiscoverable
 2018-07-18 19:23:25,379 [P15380/D2/T10] INFO  Umbraco.Core.PluginManager - Resolved umbraco.interfaces.IDiscoverable (took 0ms)
 2018-07-18 19:23:25,379 [P15380/D2/T10] INFO  Umbraco.Core.PluginManager - Resolving Umbraco.Core.PropertyEditors.IParameterEditor
 2018-07-18 19:23:25,380 [P15380/D2/T10] INFO  Umbraco.Core.PluginManager - Resolved Umbraco.Core.PropertyEditors.IParameterEditor (took 1ms)
 2018-07-18 19:24:02,929 [P15380/D2/T7] INFO  Umbraco.Core.PluginManager - Resolving umbraco.interfaces.IDiscoverable
 2018-07-18 19:24:02,929 [P15380/D2/T7] INFO  Umbraco.Core.PluginManager - Resolved umbraco.interfaces.IDiscoverable (took 0ms)
 2018-07-18 19:24:02,930 [P15380/D2/T7] INFO  Umbraco.Core.PluginManager - Resolving [Umbraco.Web.Trees.TreeAttribute]Umbraco.Web.Trees.TreeController
 2018-07-18 19:24:02,931 [P15380/D2/T7] INFO  Umbraco.Core.PluginManager - Resolved [Umbraco.Web.Trees.TreeAttribute]Umbraco.Web.Trees.TreeController (took 0ms)
 2018-07-18 19:24:03,033 [P15380/D2/T11] INFO  Umbraco.Core.PluginManager - Resolving umbraco.interfaces.IDiscoverable
 2018-07-18 19:24:03,033 [P15380/D2/T11] INFO  Umbraco.Core.PluginManager - Resolved umbraco.interfaces.IDiscoverable (took 0ms)
 2018-07-18 19:24:03,034 [P15380/D2/T11] INFO  Umbraco.Core.PluginManager - Resolving umbraco.interfaces.IAction
 2018-07-18 19:24:03,035 [P15380/D2/T11] INFO  Umbraco.Core.PluginManager - Resolved umbraco.interfaces.IAction (took 1ms)
 2018-07-18 19:24:03,511 [P15380/D2/T13] INFO  Umbraco.Core.PluginManager - Resolving umbraco.interfaces.IDiscoverable
 2018-07-18 19:24:03,511 [P15380/D2/T13] INFO  Umbraco.Core.PluginManager - Resolved umbraco.interfaces.IDiscoverable (took 0ms)
 2018-07-18 19:24:03,512 [P15380/D2/T13] INFO  Umbraco.Core.PluginManager - Resolving umbraco.interfaces.ITree
 2018-07-18 19:24:03,513 [P15380/D2/T13] INFO  Umbraco.Core.PluginManager - Resolved umbraco.interfaces.ITree (took 1ms)
 2018-07-18 19:24:03,528 [P15380/D2/T13] INFO  Umbraco.Core.PluginManager - Resolving umbraco.interfaces.IDiscoverable
 2018-07-18 19:24:03,528 [P15380/D2/T13] INFO  Umbraco.Core.PluginManager - Resolved umbraco.interfaces.IDiscoverable (took 0ms)
 2018-07-18 19:24:03,529 [P15380/D2/T13] INFO  Umbraco.Core.PluginManager - Resolving [Umbraco.Web.Trees.TreeAttribute]Umbraco.Web.Trees.TreeController
 2018-07-18 19:24:03,529 [P15380/D2/T13] INFO  Umbraco.Core.PluginManager - Resolved [Umbraco.Web.Trees.TreeAttribute]Umbraco.Web.Trees.TreeController (took 0ms)
 2018-07-18 19:24:03,533 [P15380/D2/T13] INFO  Umbraco.Core.PluginManager - Resolving umbraco.interfaces.IDiscoverable
 2018-07-18 19:24:03,533 [P15380/D2/T13] INFO  Umbraco.Core.PluginManager - Resolved umbraco.interfaces.IDiscoverable (took 0ms)
 2018-07-18 19:24:03,534 [P15380/D2/T13] INFO  Umbraco.Core.PluginManager - Resolving [umbraco.businesslogic.TreeAttribute]umbraco.interfaces.ITree
 2018-07-18 19:24:03,534 [P15380/D2/T13] INFO  Umbraco.Core.PluginManager - Resolved [umbraco.businesslogic.TreeAttribute]umbraco.interfaces.ITree (took 0ms)
 2018-07-18 19:24:03,554 [P15380/D2/T13] INFO  Umbraco.Core.PluginManager - Resolving umbraco.interfaces.IDiscoverable
 2018-07-18 19:24:03,554 [P15380/D2/T13] INFO  Umbraco.Core.PluginManager - Resolved umbraco.interfaces.IDiscoverable (took 0ms)
 2018-07-18 19:24:03,554 [P15380/D2/T13] INFO  Umbraco.Core.PluginManager - Resolving [umbraco.businesslogic.ApplicationAttribute]umbraco.interfaces.IApplication
 2018-07-18 19:24:03,555 [P15380/D2/T13] INFO  Umbraco.Core.PluginManager - Resolved [umbraco.businesslogic.ApplicationAttribute]umbraco.interfaces.IApplication (took 0ms)
 2018-07-18 19:24:05,441 [P15380/D2/T7] INFO  Umbraco.Core.PluginManager - Resolving umbraco.interfaces.IDiscoverable
 2018-07-18 19:24:05,441 [P15380/D2/T7] INFO  Umbraco.Core.PluginManager - Resolved umbraco.interfaces.IDiscoverable (took 0ms)
 2018-07-18 19:24:05,441 [P15380/D2/T7] INFO  Umbraco.Core.PluginManager - Resolving [Umbraco.Core.Persistence.Mappers.MapperForAttribute]Umbraco.Core.Persistence.Mappers.BaseMapper
 2018-07-18 19:24:05,442 [P15380/D2/T7] INFO  Umbraco.Core.PluginManager - Resolved [Umbraco.Core.Persistence.Mappers.MapperForAttribute]Umbraco.Core.Persistence.Mappers.BaseMapper (took 0ms)
 2018-07-18 19:24:12,824 [P15380/D2/T13] INFO  Umbraco.Core.PluginManager - Resolving umbraco.interfaces.IDiscoverable
 2018-07-18 19:24:12,824 [P15380/D2/T13] INFO  Umbraco.Core.PluginManager - Resolved umbraco.interfaces.IDiscoverable (took 0ms)
 2018-07-18 19:24:12,827 [P15380/D2/T13] INFO  Umbraco.Core.PluginManager - Resolving Umbraco.Core.Deploy.IServiceConnector
 2018-07-18 19:24:12,838 [P15380/D2/T13] INFO  Umbraco.Core.PluginManager - Resolved Umbraco.Core.Deploy.IServiceConnector (took 10ms)
 2018-07-18 19:24:24,808 [P15380/D2/T10] INFO  umbraco.BusinessLogic.Log - Log scrubbed.  Removed all items older than 2018-07-17 19:24:24
 2018-07-18 19:41:26,349 [P15380/D2/T83] INFO  Umbraco.Core.Logging.OwinLogger - Event Id: 0, state: User logged will be logged out due to timeout: nmac93@outlook.com, IP Address: ::1
 2018-07-18 19:42:57,531 [P15380/D2/T79] INFO  Umbraco.Core.Security.BackOfficeSignInManager - Event Id: 0, state: Login attempt succeeded for username nmac93@outlook.com from IP address ::1
 2018-07-18 19:42:57,534 [P15380/D2/T79] INFO  Umbraco.Core.Security.BackOfficeSignInManager - Event Id: 0, state: User: nmac93@outlook.com logged in from IP address ::1
 2018-07-18 19:43:16,197 [P15380/D2/T88] WARN  Umbraco.Web.Models.Mapping.PreValueDisplayResolver - Could not find persisted pre-value for field maxChars
 2018-07-18 19:43:16,224 [P15380/D2/T94] WARN  Umbraco.Web.Models.Mapping.PreValueDisplayResolver - Could not find persisted pre-value for field editor
 2018-07-18 19:43:16,227 [P15380/D2/T94] WARN  Umbraco.Web.Models.Mapping.PreValueDisplayResolver - Could not find persisted pre-value for field hideLabel
 2018-07-18 20:12:28,345 [P15380/D2/T64] INFO  Umbraco.Core.Logging.OwinLogger - Event Id: 0, state: User logged will be logged out due to timeout: nmac93@outlook.com, IP Address: ::1
 2018-07-18 20:12:34,346 [P15380/D2/T60] INFO  Umbraco.Core.Logging.OwinLogger - Event Id: 0, state: User logged will be logged out due to timeout: nmac93@outlook.com, IP Address: ::1
 2018-07-18 20:13:47,606 [P15380/D2/T71] INFO  Umbraco.Core.Security.BackOfficeSignInManager - Event Id: 0, state: Login attempt succeeded for username nmac93@outlook.com from IP address ::1
 2018-07-18 20:13:47,607 [P15380/D2/T71] INFO  Umbraco.Core.Security.BackOfficeSignInManager - Event Id: 0, state: User: nmac93@outlook.com logged in from IP address ::1
 2018-07-18 20:46:10,611 [P15380/D2/T142] INFO  Umbraco.Core.Logging.OwinLogger - Event Id: 0, state: User logged will be logged out due to timeout: nmac93@outlook.com, IP Address: ::1
 2018-07-18 20:46:26,348 [P15380/D2/T74] INFO  Umbraco.Core.Security.BackOfficeSignInManager - Event Id: 0, state: Login attempt succeeded for username nmac93@outlook.com from IP address ::1
 2018-07-18 20:46:26,349 [P15380/D2/T74] INFO  Umbraco.Core.Security.BackOfficeSignInManager - Event Id: 0, state: User: nmac93@outlook.com logged in from IP address ::1
 2018-07-18 20:52:25,787 [P15380/D2/T144] ERROR Umbraco.Core.UmbracoApplicationBase - An unhandled exception occurred
System.Web.HttpCompileException (0x80004005): f:\Users\Nic\Documents\Development\Radiator Digital Tech Test\NicolMacWilliamTechTest\NicolMacWilliamTechTest\Views\Visit.cshtml(41): error CS1593: Delegate 'System.Func<Umbraco.Core.Models.IPublishedContent,int,bool>' does not take 1 arguments
   at System.Web.Compilation.AssemblyBuilder.Compile()
   at System.Web.Compilation.BuildProvidersCompiler.PerformBuild()
   at System.Web.Compilation.BuildManager.CompileWebFile(VirtualPath virtualPath)
   at System.Web.Compilation.BuildManager.GetVPathBuildResultInternal(VirtualPath virtualPath, Boolean noBuild, Boolean allowCrossApp, Boolean allowBuildInPrecompile, Boolean throwIfNotFound, Boolean ensureIsUpToDate)
   at System.Web.Compilation.BuildManager.GetVPathBuildResultWithNoAssert(HttpContext context, VirtualPath virtualPath, Boolean noBuild, Boolean allowCrossApp, Boolean allowBuildInPrecompile, Boolean throwIfNotFound, Boolean ensureIsUpToDate)
   at System.Web.Compilation.BuildManager.GetVirtualPathObjectFactory(VirtualPath virtualPath, HttpContext context, Boolean allowCrossApp, Boolean throwIfNotFound)
   at System.Web.Compilation.BuildManager.GetCompiledType(VirtualPath virtualPath)
   at System.Web.Compilation.BuildManager.GetCompiledType(String virtualPath)
   at System.Web.Mvc.BuildManagerWrapper.System.Web.Mvc.IBuildManager.GetCompiledType(String virtualPath)
   at System.Web.Mvc.BuildManagerCompiledView.Render(ViewContext viewContext, TextWriter writer)
   at Umbraco.Core.Profiling.ProfilingView.Render(ViewContext viewContext, TextWriter writer)
   at System.Web.Mvc.ViewResultBase.ExecuteResult(ControllerContext context)
   at System.Web.Mvc.ControllerActionInvoker.InvokeActionResult(ControllerContext controllerContext, ActionResult actionResult)
   at System.Web.Mvc.ControllerActionInvoker.InvokeActionResultFilterRecursive(IList`1 filters, Int32 filterIndex, ResultExecutingContext preContext, ControllerContext controllerContext, ActionResult actionResult)
   at System.Web.Mvc.ControllerActionInvoker.InvokeActionResultFilterRecursive(IList`1 filters, Int32 filterIndex, ResultExecutingContext preContext, ControllerContext controllerContext, ActionResult actionResult)
   at System.Web.Mvc.ControllerActionInvoker.InvokeActionResultFilterRecursive(IList`1 filters, Int32 filterIndex, ResultExecutingContext preContext, ControllerContext controllerContext, ActionResult actionResult)
   at System.Web.Mvc.ControllerActionInvoker.InvokeActionResultFilterRecursive(IList`1 filters, Int32 filterIndex, ResultExecutingContext preContext, ControllerContext controllerContext, ActionResult actionResult)
   at System.Web.Mvc.ControllerActionInvoker.InvokeActionResultWithFilters(ControllerContext controllerContext, IList`1 filters, ActionResult actionResult)
   at System.Web.Mvc.Async.AsyncControllerActionInvoker.<>c__DisplayClass21.<>c__DisplayClass2b.<BeginInvokeAction>b__1c()
   at System.Web.Mvc.Async.AsyncControllerActionInvoker.<>c__DisplayClass21.<BeginInvokeAction>b__1e(IAsyncResult asyncResult)
   at System.Web.Mvc.Async.AsyncResultWrapper.WrappedAsyncResult`1.CallEndDelegate(IAsyncResult asyncResult)
   at System.Web.Mvc.Async.AsyncResultWrapper.WrappedAsyncResultBase`1.End()
   at System.Web.Mvc.Async.AsyncControllerActionInvoker.EndInvokeAction(IAsyncResult asyncResult)
   at System.Web.Mvc.Controller.<BeginExecuteCore>b__1d(IAsyncResult asyncResult, ExecuteCoreState innerState)
   at System.Web.Mvc.Async.AsyncResultWrapper.WrappedAsyncVoid`1.CallEndDelegate(IAsyncResult asyncResult)
   at System.Web.Mvc.Async.AsyncResultWrapper.WrappedAsyncResultBase`1.End()
   at System.Web.Mvc.Controller.EndExecuteCore(IAsyncResult asyncResult)
   at System.Web.Mvc.Controller.<BeginExecute>b__15(IAsyncResult asyncResult, Controller controller)
   at System.Web.Mvc.Async.AsyncResultWrapper.WrappedAsyncVoid`1.CallEndDelegate(IAsyncResult asyncResult)
   at System.Web.Mvc.Async.AsyncResultWrapper.WrappedAsyncResultBase`1.End()
   at System.Web.Mvc.Controller.EndExecute(IAsyncResult asyncResult)
   at System.Web.Mvc.Controller.System.Web.Mvc.Async.IAsyncController.EndExecute(IAsyncResult asyncResult)
   at System.Web.Mvc.MvcHandler.<BeginProcessRequest>b__5(IAsyncResult asyncResult, ProcessRequestState innerState)
   at System.Web.Mvc.Async.AsyncResultWrapper.WrappedAsyncVoid`1.CallEndDelegate(IAsyncResult asyncResult)
   at System.Web.Mvc.Async.AsyncResultWrapper.WrappedAsyncResultBase`1.End()
   at System.Web.Mvc.MvcHandler.EndProcessRequest(IAsyncResult asyncResult)
   at System.Web.Mvc.MvcHandler.System.Web.IHttpAsyncHandler.EndProcessRequest(IAsyncResult result)
   at System.Web.HttpApplication.CallHandlerExecutionStep.System.Web.HttpApplication.IExecutionStep.Execute()
   at System.Web.HttpApplication.ExecuteStepImpl(IExecutionStep step)
   at System.Web.HttpApplication.ExecuteStep(IExecutionStep step, Boolean& completedSynchronously)
 2018-07-18 20:58:22,282 [P15380/D2/T141] ERROR Umbraco.Core.UmbracoApplicationBase - An unhandled exception occurred
System.Web.HttpCompileException (0x80004005): f:\Users\Nic\Documents\Development\Radiator Digital Tech Test\NicolMacWilliamTechTest\NicolMacWilliamTechTest\Views\Visit.cshtml(42): error CS1593: Delegate 'System.Func<Umbraco.Core.Models.IPublishedContent,int,bool>' does not take 1 arguments
   at System.Web.Compilation.AssemblyBuilder.Compile()
   at System.Web.Compilation.BuildProvidersCompiler.PerformBuild()
   at System.Web.Compilation.BuildManager.CompileWebFile(VirtualPath virtualPath)
   at System.Web.Compilation.BuildManager.GetVPathBuildResultInternal(VirtualPath virtualPath, Boolean noBuild, Boolean allowCrossApp, Boolean allowBuildInPrecompile, Boolean throwIfNotFound, Boolean ensureIsUpToDate)
   at System.Web.Compilation.BuildManager.GetVPathBuildResultWithNoAssert(HttpContext context, VirtualPath virtualPath, Boolean noBuild, Boolean allowCrossApp, Boolean allowBuildInPrecompile, Boolean throwIfNotFound, Boolean ensureIsUpToDate)
   at System.Web.Compilation.BuildManager.GetVirtualPathObjectFactory(VirtualPath virtualPath, HttpContext context, Boolean allowCrossApp, Boolean throwIfNotFound)
   at System.Web.Compilation.BuildManager.GetCompiledType(VirtualPath virtualPath)
   at System.Web.Compilation.BuildManager.GetCompiledType(String virtualPath)
   at System.Web.Mvc.BuildManagerWrapper.System.Web.Mvc.IBuildManager.GetCompiledType(String virtualPath)
   at System.Web.Mvc.BuildManagerCompiledView.Render(ViewContext viewContext, TextWriter writer)
   at Umbraco.Core.Profiling.ProfilingView.Render(ViewContext viewContext, TextWriter writer)
   at System.Web.Mvc.ViewResultBase.ExecuteResult(ControllerContext context)
   at System.Web.Mvc.ControllerActionInvoker.InvokeActionResult(ControllerContext controllerContext, ActionResult actionResult)
   at System.Web.Mvc.ControllerActionInvoker.InvokeActionResultFilterRecursive(IList`1 filters, Int32 filterIndex, ResultExecutingContext preContext, ControllerContext controllerContext, ActionResult actionResult)
   at System.Web.Mvc.ControllerActionInvoker.InvokeActionResultFilterRecursive(IList`1 filters, Int32 filterIndex, ResultExecutingContext preContext, ControllerContext controllerContext, ActionResult actionResult)
   at System.Web.Mvc.ControllerActionInvoker.InvokeActionResultFilterRecursive(IList`1 filters, Int32 filterIndex, ResultExecutingContext preContext, ControllerContext controllerContext, ActionResult actionResult)
   at System.Web.Mvc.ControllerActionInvoker.InvokeActionResultFilterRecursive(IList`1 filters, Int32 filterIndex, ResultExecutingContext preContext, ControllerContext controllerContext, ActionResult actionResult)
   at System.Web.Mvc.ControllerActionInvoker.InvokeActionResultWithFilters(ControllerContext controllerContext, IList`1 filters, ActionResult actionResult)
   at System.Web.Mvc.Async.AsyncControllerActionInvoker.<>c__DisplayClass21.<>c__DisplayClass2b.<BeginInvokeAction>b__1c()
   at System.Web.Mvc.Async.AsyncControllerActionInvoker.<>c__DisplayClass21.<BeginInvokeAction>b__1e(IAsyncResult asyncResult)
   at System.Web.Mvc.Async.AsyncResultWrapper.WrappedAsyncResult`1.CallEndDelegate(IAsyncResult asyncResult)
   at System.Web.Mvc.Async.AsyncResultWrapper.WrappedAsyncResultBase`1.End()
   at System.Web.Mvc.Async.AsyncControllerActionInvoker.EndInvokeAction(IAsyncResult asyncResult)
   at System.Web.Mvc.Controller.<BeginExecuteCore>b__1d(IAsyncResult asyncResult, ExecuteCoreState innerState)
   at System.Web.Mvc.Async.AsyncResultWrapper.WrappedAsyncVoid`1.CallEndDelegate(IAsyncResult asyncResult)
   at System.Web.Mvc.Async.AsyncResultWrapper.WrappedAsyncResultBase`1.End()
   at System.Web.Mvc.Controller.EndExecuteCore(IAsyncResult asyncResult)
   at System.Web.Mvc.Controller.<BeginExecute>b__15(IAsyncResult asyncResult, Controller controller)
   at System.Web.Mvc.Async.AsyncResultWrapper.WrappedAsyncVoid`1.CallEndDelegate(IAsyncResult asyncResult)
   at System.Web.Mvc.Async.AsyncResultWrapper.WrappedAsyncResultBase`1.End()
   at System.Web.Mvc.Controller.EndExecute(IAsyncResult asyncResult)
   at System.Web.Mvc.Controller.System.Web.Mvc.Async.IAsyncController.EndExecute(IAsyncResult asyncResult)
   at System.Web.Mvc.MvcHandler.<BeginProcessRequest>b__5(IAsyncResult asyncResult, ProcessRequestState innerState)
   at System.Web.Mvc.Async.AsyncResultWrapper.WrappedAsyncVoid`1.CallEndDelegate(IAsyncResult asyncResult)
   at System.Web.Mvc.Async.AsyncResultWrapper.WrappedAsyncResultBase`1.End()
   at System.Web.Mvc.MvcHandler.EndProcessRequest(IAsyncResult asyncResult)
   at System.Web.Mvc.MvcHandler.System.Web.IHttpAsyncHandler.EndProcessRequest(IAsyncResult result)
   at System.Web.HttpApplication.CallHandlerExecutionStep.System.Web.HttpApplication.IExecutionStep.Execute()
   at System.Web.HttpApplication.ExecuteStepImpl(IExecutionStep step)
   at System.Web.HttpApplication.ExecuteStep(IExecutionStep step, Boolean& completedSynchronously)
 2018-07-18 20:58:52,612 [P15380/D2/T140] ERROR Umbraco.Core.UmbracoApplicationBase - An unhandled exception occurred
System.Web.HttpCompileException (0x80004005): f:\Users\Nic\Documents\Development\Radiator Digital Tech Test\NicolMacWilliamTechTest\NicolMacWilliamTechTest\Views\Visit.cshtml(42): error CS1593: Delegate 'System.Func<Umbraco.Core.Models.IPublishedContent,int,bool>' does not take 1 arguments
   at System.Web.Compilation.AssemblyBuilder.Compile()
   at System.Web.Compilation.BuildProvidersCompiler.PerformBuild()
   at System.Web.Compilation.BuildManager.CompileWebFile(VirtualPath virtualPath)
   at System.Web.Compilation.BuildManager.GetVPathBuildResultInternal(VirtualPath virtualPath, Boolean noBuild, Boolean allowCrossApp, Boolean allowBuildInPrecompile, Boolean throwIfNotFound, Boolean ensureIsUpToDate)
   at System.Web.Compilation.BuildManager.GetVPathBuildResultWithNoAssert(HttpContext context, VirtualPath virtualPath, Boolean noBuild, Boolean allowCrossApp, Boolean allowBuildInPrecompile, Boolean throwIfNotFound, Boolean ensureIsUpToDate)
   at System.Web.Compilation.BuildManager.GetVirtualPathObjectFactory(VirtualPath virtualPath, HttpContext context, Boolean allowCrossApp, Boolean throwIfNotFound)
   at System.Web.Compilation.BuildManager.GetCompiledType(VirtualPath virtualPath)
   at System.Web.Compilation.BuildManager.GetCompiledType(String virtualPath)
   at System.Web.Mvc.BuildManagerWrapper.System.Web.Mvc.IBuildManager.GetCompiledType(String virtualPath)
   at System.Web.Mvc.BuildManagerCompiledView.Render(ViewContext viewContext, TextWriter writer)
   at Umbraco.Core.Profiling.ProfilingView.Render(ViewContext viewContext, TextWriter writer)
   at System.Web.Mvc.ViewResultBase.ExecuteResult(ControllerContext context)
   at System.Web.Mvc.ControllerActionInvoker.InvokeActionResult(ControllerContext controllerContext, ActionResult actionResult)
   at System.Web.Mvc.ControllerActionInvoker.InvokeActionResultFilterRecursive(IList`1 filters, Int32 filterIndex, ResultExecutingContext preContext, ControllerContext controllerContext, ActionResult actionResult)
   at System.Web.Mvc.ControllerActionInvoker.InvokeActionResultFilterRecursive(IList`1 filters, Int32 filterIndex, ResultExecutingContext preContext, ControllerContext controllerContext, ActionResult actionResult)
   at System.Web.Mvc.ControllerActionInvoker.InvokeActionResultFilterRecursive(IList`1 filters, Int32 filterIndex, ResultExecutingContext preContext, ControllerContext controllerContext, ActionResult actionResult)
   at System.Web.Mvc.ControllerActionInvoker.InvokeActionResultFilterRecursive(IList`1 filters, Int32 filterIndex, ResultExecutingContext preContext, ControllerContext controllerContext, ActionResult actionResult)
   at System.Web.Mvc.ControllerActionInvoker.InvokeActionResultWithFilters(ControllerContext controllerContext, IList`1 filters, ActionResult actionResult)
   at System.Web.Mvc.Async.AsyncControllerActionInvoker.<>c__DisplayClass21.<>c__DisplayClass2b.<BeginInvokeAction>b__1c()
   at System.Web.Mvc.Async.AsyncControllerActionInvoker.<>c__DisplayClass21.<BeginInvokeAction>b__1e(IAsyncResult asyncResult)
   at System.Web.Mvc.Async.AsyncResultWrapper.WrappedAsyncResult`1.CallEndDelegate(IAsyncResult asyncResult)
   at System.Web.Mvc.Async.AsyncResultWrapper.WrappedAsyncResultBase`1.End()
   at System.Web.Mvc.Async.AsyncControllerActionInvoker.EndInvokeAction(IAsyncResult asyncResult)
   at System.Web.Mvc.Controller.<BeginExecuteCore>b__1d(IAsyncResult asyncResult, ExecuteCoreState innerState)
   at System.Web.Mvc.Async.AsyncResultWrapper.WrappedAsyncVoid`1.CallEndDelegate(IAsyncResult asyncResult)
   at System.Web.Mvc.Async.AsyncResultWrapper.WrappedAsyncResultBase`1.End()
   at System.Web.Mvc.Controller.EndExecuteCore(IAsyncResult asyncResult)
   at System.Web.Mvc.Controller.<BeginExecute>b__15(IAsyncResult asyncResult, Controller controller)
   at System.Web.Mvc.Async.AsyncResultWrapper.WrappedAsyncVoid`1.CallEndDelegate(IAsyncResult asyncResult)
   at System.Web.Mvc.Async.AsyncResultWrapper.WrappedAsyncResultBase`1.End()
   at System.Web.Mvc.Controller.EndExecute(IAsyncResult asyncResult)
   at System.Web.Mvc.Controller.System.Web.Mvc.Async.IAsyncController.EndExecute(IAsyncResult asyncResult)
   at System.Web.Mvc.MvcHandler.<BeginProcessRequest>b__5(IAsyncResult asyncResult, ProcessRequestState innerState)
   at System.Web.Mvc.Async.AsyncResultWrapper.WrappedAsyncVoid`1.CallEndDelegate(IAsyncResult asyncResult)
   at System.Web.Mvc.Async.AsyncResultWrapper.WrappedAsyncResultBase`1.End()
   at System.Web.Mvc.MvcHandler.EndProcessRequest(IAsyncResult asyncResult)
   at System.Web.Mvc.MvcHandler.System.Web.IHttpAsyncHandler.EndProcessRequest(IAsyncResult result)
   at System.Web.HttpApplication.CallHandlerExecutionStep.System.Web.HttpApplication.IExecutionStep.Execute()
   at System.Web.HttpApplication.ExecuteStepImpl(IExecutionStep step)
   at System.Web.HttpApplication.ExecuteStep(IExecutionStep step, Boolean& completedSynchronously)
 2018-07-18 21:04:57,553 [P8120/D2/T1] INFO  Umbraco.Core.CoreBootManager - Umbraco 7.11.1 application starting on DESKTOP-BT7GGVQ
 2018-07-18 21:04:57,579 [P8120/D2/T1] INFO  Umbraco.Core.PluginManager - Determining hash of code files on disk
 2018-07-18 21:04:57,589 [P8120/D2/T1] INFO  Umbraco.Core.PluginManager - Hash determined (took 9ms)
 2018-07-18 21:04:57,688 [P8120/D2/T1] INFO  Umbraco.Core.MainDom - Acquiring MainDom...
 2018-07-18 21:04:57,689 [P8120/D2/T1] INFO  Umbraco.Core.MainDom - Acquired MainDom.
 2018-07-18 21:04:57,691 [P8120/D2/T1] INFO  Umbraco.Core.PluginManager - Resolving umbraco.interfaces.IDiscoverable
 2018-07-18 21:04:57,877 [P8120/D2/T1] INFO  Umbraco.Core.PluginManager - Resolved umbraco.interfaces.IDiscoverable (took 185ms)
 2018-07-18 21:04:57,877 [P8120/D2/T1] INFO  Umbraco.Core.PluginManager - Resolving umbraco.interfaces.IApplicationStartupHandler
 2018-07-18 21:04:57,878 [P8120/D2/T1] INFO  Umbraco.Core.PluginManager - Resolved umbraco.interfaces.IApplicationStartupHandler (took 1ms)
 2018-07-18 21:04:57,924 [P8120/D2/T1] INFO  Umbraco.Core.PluginManager - Resolving umbraco.interfaces.IDiscoverable
 2018-07-18 21:04:57,924 [P8120/D2/T1] INFO  Umbraco.Core.PluginManager - Resolved umbraco.interfaces.IDiscoverable (took 0ms)
 2018-07-18 21:04:57,924 [P8120/D2/T1] INFO  Umbraco.Core.PluginManager - Resolving Umbraco.Core.PropertyEditors.IPropertyEditorValueConverter
 2018-07-18 21:04:57,925 [P8120/D2/T1] INFO  Umbraco.Core.PluginManager - Resolved Umbraco.Core.PropertyEditors.IPropertyEditorValueConverter (took 0ms)
 2018-07-18 21:04:57,926 [P8120/D2/T1] INFO  Umbraco.Core.PluginManager - Resolving umbraco.interfaces.IDiscoverable
 2018-07-18 21:04:57,926 [P8120/D2/T1] INFO  Umbraco.Core.PluginManager - Resolved umbraco.interfaces.IDiscoverable (took 0ms)
 2018-07-18 21:04:57,926 [P8120/D2/T1] INFO  Umbraco.Core.PluginManager - Resolving Umbraco.Core.PropertyEditors.IPropertyValueConverter
 2018-07-18 21:04:57,927 [P8120/D2/T1] INFO  Umbraco.Core.PluginManager - Resolved Umbraco.Core.PropertyEditors.IPropertyValueConverter (took 1ms)
 2018-07-18 21:04:57,940 [P8120/D2/T1] INFO  Umbraco.Core.PluginManager - Resolving umbraco.interfaces.IDiscoverable
 2018-07-18 21:04:57,940 [P8120/D2/T1] INFO  Umbraco.Core.PluginManager - Resolved umbraco.interfaces.IDiscoverable (took 0ms)
 2018-07-18 21:04:57,940 [P8120/D2/T1] INFO  Umbraco.Core.PluginManager - Resolving Umbraco.Web.Mvc.SurfaceController
 2018-07-18 21:04:57,940 [P8120/D2/T1] INFO  Umbraco.Core.PluginManager - Resolved Umbraco.Web.Mvc.SurfaceController (took 0ms)
 2018-07-18 21:04:57,941 [P8120/D2/T1] INFO  Umbraco.Core.PluginManager - Resolving umbraco.interfaces.IDiscoverable
 2018-07-18 21:04:57,941 [P8120/D2/T1] INFO  Umbraco.Core.PluginManager - Resolved umbraco.interfaces.IDiscoverable (took 0ms)
 2018-07-18 21:04:57,942 [P8120/D2/T1] INFO  Umbraco.Core.PluginManager - Resolving Umbraco.Web.WebApi.UmbracoApiController
 2018-07-18 21:04:57,943 [P8120/D2/T1] INFO  Umbraco.Core.PluginManager - Resolved Umbraco.Web.WebApi.UmbracoApiController (took 0ms)
 2018-07-18 21:04:59,892 [P8120/D2/T1] INFO  Umbraco.Core.DatabaseContext - CanConnect = True
 2018-07-18 21:05:00,356 [P8120/D2/T1] INFO  Umbraco.Web.Cache.CacheRefresherEventHandler - Initializing Umbraco internal event handlers for cache refreshing
 2018-07-18 21:05:00,595 [P8120/D2/T1] INFO  Umbraco.Web.Search.ExamineEvents - Initializing Examine and binding to business logic events
 2018-07-18 21:05:00,797 [P8120/D2/T1] INFO  Umbraco.Web.Search.ExamineEvents - Adding examine event handlers for index providers: 3
 2018-07-18 21:05:00,811 [P8120/D2/T1] INFO  Umbraco.Core.CoreBootManager - Umbraco application startup complete (took 3360ms)
 2018-07-18 21:05:02,670 [P8120/D2/T7] INFO  Umbraco.Core.Sync.ApplicationUrlHelper - New ApplicationUrl detected: http://localhost:58619/umbraco
 2018-07-18 21:05:02,672 [P8120/D2/T7] INFO  Umbraco.Core.Sync.ApplicationUrlHelper - ApplicationUrl: http://localhost:58619/umbraco (UmbracoModule request)
 2018-07-18 21:05:03,218 [P8120/D2/T10] INFO  umbraco.content - Load Xml from file...
 2018-07-18 21:05:03,233 [P8120/D2/T10] INFO  umbraco.content - Loaded Xml from file.
 2018-07-18 21:05:03,864 [P8120/D2/T10] INFO  Umbraco.Core.PluginManager - Resolving umbraco.interfaces.IDiscoverable
 2018-07-18 21:05:03,864 [P8120/D2/T10] INFO  Umbraco.Core.PluginManager - Resolved umbraco.interfaces.IDiscoverable (took 0ms)
 2018-07-18 21:05:03,864 [P8120/D2/T10] INFO  Umbraco.Core.PluginManager - Resolving Umbraco.Core.PropertyEditors.IParameterEditor
 2018-07-18 21:05:03,865 [P8120/D2/T10] INFO  Umbraco.Core.PluginManager - Resolved Umbraco.Core.PropertyEditors.IParameterEditor (took 0ms)
 2018-07-18 21:05:05,830 [P8120/D2/T10] INFO  Umbraco.Core.PluginManager - Resolving umbraco.interfaces.IDiscoverable
 2018-07-18 21:05:05,831 [P8120/D2/T10] INFO  Umbraco.Core.PluginManager - Resolved umbraco.interfaces.IDiscoverable (took 0ms)
 2018-07-18 21:05:05,831 [P8120/D2/T10] INFO  Umbraco.Core.PluginManager - Resolving Umbraco.Core.Deploy.IServiceConnector
 2018-07-18 21:05:05,831 [P8120/D2/T10] INFO  Umbraco.Core.PluginManager - Resolved Umbraco.Core.Deploy.IServiceConnector (took 0ms)
 2018-07-18 21:05:05,832 [P8120/D2/T7] INFO  Umbraco.Core.PluginManager - Resolving umbraco.interfaces.IDiscoverable
 2018-07-18 21:05:05,832 [P8120/D2/T7] INFO  Umbraco.Core.PluginManager - Resolved umbraco.interfaces.IDiscoverable (took 0ms)
 2018-07-18 21:05:05,832 [P8120/D2/T7] INFO  Umbraco.Core.PluginManager - Resolving Umbraco.Core.Deploy.IServiceConnector
 2018-07-18 21:05:05,832 [P8120/D2/T7] INFO  Umbraco.Core.PluginManager - Resolved Umbraco.Core.Deploy.IServiceConnector (took 0ms)
 2018-07-18 21:07:39,435 [P3432/D2/T1] INFO  Umbraco.Core.CoreBootManager - Umbraco 7.11.1 application starting on DESKTOP-BT7GGVQ
 2018-07-18 21:07:39,457 [P3432/D2/T1] INFO  Umbraco.Core.PluginManager - Determining hash of code files on disk
 2018-07-18 21:07:39,466 [P3432/D2/T1] INFO  Umbraco.Core.PluginManager - Hash determined (took 9ms)
 2018-07-18 21:07:39,527 [P3432/D2/T1] INFO  Umbraco.Core.MainDom - Acquiring MainDom...
 2018-07-18 21:07:39,531 [P3432/D2/T1] INFO  Umbraco.Core.MainDom - Acquired MainDom.
 2018-07-18 21:07:39,533 [P3432/D2/T1] INFO  Umbraco.Core.PluginManager - Resolving umbraco.interfaces.IDiscoverable
 2018-07-18 21:07:39,726 [P3432/D2/T1] INFO  Umbraco.Core.PluginManager - Resolved umbraco.interfaces.IDiscoverable (took 193ms)
 2018-07-18 21:07:39,727 [P3432/D2/T1] INFO  Umbraco.Core.PluginManager - Resolving umbraco.interfaces.IApplicationStartupHandler
 2018-07-18 21:07:39,728 [P3432/D2/T1] INFO  Umbraco.Core.PluginManager - Resolved umbraco.interfaces.IApplicationStartupHandler (took 1ms)
 2018-07-18 21:07:39,769 [P3432/D2/T1] INFO  Umbraco.Core.PluginManager - Resolving umbraco.interfaces.IDiscoverable
 2018-07-18 21:07:39,770 [P3432/D2/T1] INFO  Umbraco.Core.PluginManager - Resolved umbraco.interfaces.IDiscoverable (took 0ms)
 2018-07-18 21:07:39,770 [P3432/D2/T1] INFO  Umbraco.Core.PluginManager - Resolving Umbraco.Core.PropertyEditors.IPropertyEditorValueConverter
 2018-07-18 21:07:39,770 [P3432/D2/T1] INFO  Umbraco.Core.PluginManager - Resolved Umbraco.Core.PropertyEditors.IPropertyEditorValueConverter (took 0ms)
 2018-07-18 21:07:39,771 [P3432/D2/T1] INFO  Umbraco.Core.PluginManager - Resolving umbraco.interfaces.IDiscoverable
 2018-07-18 21:07:39,771 [P3432/D2/T1] INFO  Umbraco.Core.PluginManager - Resolved umbraco.interfaces.IDiscoverable (took 0ms)
 2018-07-18 21:07:39,771 [P3432/D2/T1] INFO  Umbraco.Core.PluginManager - Resolving Umbraco.Core.PropertyEditors.IPropertyValueConverter
 2018-07-18 21:07:39,773 [P3432/D2/T1] INFO  Umbraco.Core.PluginManager - Resolved Umbraco.Core.PropertyEditors.IPropertyValueConverter (took 1ms)
 2018-07-18 21:07:39,785 [P3432/D2/T1] INFO  Umbraco.Core.PluginManager - Resolving umbraco.interfaces.IDiscoverable
 2018-07-18 21:07:39,785 [P3432/D2/T1] INFO  Umbraco.Core.PluginManager - Resolved umbraco.interfaces.IDiscoverable (took 0ms)
 2018-07-18 21:07:39,785 [P3432/D2/T1] INFO  Umbraco.Core.PluginManager - Resolving Umbraco.Web.Mvc.SurfaceController
 2018-07-18 21:07:39,785 [P3432/D2/T1] INFO  Umbraco.Core.PluginManager - Resolved Umbraco.Web.Mvc.SurfaceController (took 0ms)
 2018-07-18 21:07:39,786 [P3432/D2/T1] INFO  Umbraco.Core.PluginManager - Resolving umbraco.interfaces.IDiscoverable
 2018-07-18 21:07:39,787 [P3432/D2/T1] INFO  Umbraco.Core.PluginManager - Resolved umbraco.interfaces.IDiscoverable (took 0ms)
 2018-07-18 21:07:39,787 [P3432/D2/T1] INFO  Umbraco.Core.PluginManager - Resolving Umbraco.Web.WebApi.UmbracoApiController
 2018-07-18 21:07:39,787 [P3432/D2/T1] INFO  Umbraco.Core.PluginManager - Resolved Umbraco.Web.WebApi.UmbracoApiController (took 0ms)
 2018-07-18 21:07:41,378 [P3432/D2/T1] INFO  Umbraco.Core.DatabaseContext - CanConnect = True
 2018-07-18 21:07:41,701 [P3432/D2/T1] INFO  Umbraco.Web.Cache.CacheRefresherEventHandler - Initializing Umbraco internal event handlers for cache refreshing
 2018-07-18 21:07:41,888 [P3432/D2/T1] INFO  Umbraco.Web.Search.ExamineEvents - Initializing Examine and binding to business logic events
 2018-07-18 21:07:41,986 [P3432/D2/T1] INFO  Umbraco.Web.Search.ExamineEvents - Adding examine event handlers for index providers: 3
 2018-07-18 21:07:42,005 [P3432/D2/T1] INFO  Umbraco.Core.CoreBootManager - Umbraco application startup complete (took 2657ms)
 2018-07-18 21:07:43,180 [P3432/D2/T7] INFO  Umbraco.Core.Sync.ApplicationUrlHelper - New ApplicationUrl detected: http://localhost:58619/umbraco
 2018-07-18 21:07:43,182 [P3432/D2/T7] INFO  Umbraco.Core.Sync.ApplicationUrlHelper - ApplicationUrl: http://localhost:58619/umbraco (UmbracoModule request)
 2018-07-18 21:07:47,010 [P3432/D2/T7] INFO  umbraco.content - Load Xml from file...
 2018-07-18 21:07:47,016 [P3432/D2/T7] INFO  umbraco.content - Loaded Xml from file.
 2018-07-18 21:07:47,644 [P3432/D2/T7] INFO  Umbraco.Core.PluginManager - Resolving umbraco.interfaces.IDiscoverable
 2018-07-18 21:07:47,644 [P3432/D2/T7] INFO  Umbraco.Core.PluginManager - Resolved umbraco.interfaces.IDiscoverable (took 0ms)
 2018-07-18 21:07:47,644 [P3432/D2/T7] INFO  Umbraco.Core.PluginManager - Resolving Umbraco.Core.PropertyEditors.IParameterEditor
 2018-07-18 21:07:47,645 [P3432/D2/T7] INFO  Umbraco.Core.PluginManager - Resolved Umbraco.Core.PropertyEditors.IParameterEditor (took 1ms)
 2018-07-18 21:07:57,649 [P3432/D2/T7] INFO  Umbraco.Core.PluginManager - Resolving umbraco.interfaces.IDiscoverable
 2018-07-18 21:07:57,649 [P3432/D2/T7] INFO  Umbraco.Core.PluginManager - Resolved umbraco.interfaces.IDiscoverable (took 0ms)
 2018-07-18 21:07:57,649 [P3432/D2/T7] INFO  Umbraco.Core.PluginManager - Resolving Umbraco.Core.Deploy.IServiceConnector
 2018-07-18 21:07:57,649 [P3432/D2/T7] INFO  Umbraco.Core.PluginManager - Resolved Umbraco.Core.Deploy.IServiceConnector (took 0ms)
 2018-07-18 21:07:57,650 [P3432/D2/T10] INFO  Umbraco.Core.PluginManager - Resolving umbraco.interfaces.IDiscoverable
 2018-07-18 21:07:57,650 [P3432/D2/T10] INFO  Umbraco.Core.PluginManager - Resolved umbraco.interfaces.IDiscoverable (took 0ms)
 2018-07-18 21:07:57,650 [P3432/D2/T10] INFO  Umbraco.Core.PluginManager - Resolving Umbraco.Core.Deploy.IServiceConnector
 2018-07-18 21:07:57,651 [P3432/D2/T10] INFO  Umbraco.Core.PluginManager - Resolved Umbraco.Core.Deploy.IServiceConnector (took 0ms)
